// EVENT 4008
Name "/アリス3"

241(bytes(0x04,0x08,0x6f,0x3a,0x0d,0x52,0x50,0x47,0x3a,0x3a,0x42,0x47,0x4d,0x08,0x3a,0x0a,0x40,0x6e,0x61,0x6d,0x65,0x49,0x22,0x09,0x65,0x72,0x6f,0x31,0x06,0x3a,0x06,0x45,0x54,0x3a,0x0c,0x40,0x76,0x6f,0x6c,0x75,0x6d,0x65,0x69,0x69,0x3a,0x0b,0x40,0x70,0x69,0x74,0x63,0x68,0x69,0x69))
PictureDisplay(5,"80_alice_st01",0,0,0,0,100,100,0,0)
PictureMove(5,null,0,0,0,0,100,100,255,0,30,true)
250(bytes(0x04,0x08,0x6f,0x3a,0x0c,0x52,0x50,0x47,0x3a,0x3a,0x53,0x45,0x08,0x3a,0x0a,0x40,0x6e,0x61,0x6d,0x65,0x49,0x22,0x16,0x6d,0x6f,0x6e,0x5f,0x65,0x72,0x6f,0x5f,0x6d,0x61,0x6b,0x69,0x74,0x75,0x6b,0x69,0x31,0x06,0x3a,0x06,0x45,0x54,0x3a,0x0b,0x40,0x70,0x69,0x74,0x63,0x68,0x69,0x69,0x3a,0x0c,0x40,0x76,0x6f,0x6c,0x75,0x6d,0x65,0x69,0x69))
ShowMessageFace("",0,0,2,0)
ShowMessage("アリスは大きなため息を吐くと、不意に尻尾で僕の体を巻き上げてきた。")
ShowMessageFace("",0,0,2,1)
ShowMessage("【ルカ】")
ShowMessage("うわっ……いきなり、何するんだ！")
ShowMessageFace("alice_fc1",2,0,2,2)
ShowMessage("【アリス】")
ShowMessage("長い旅路で、欲望が溜まっているのだろう？")
ShowMessage("たまには余が搾り出してやらねばなるまい……")
ShowMessageFace("",0,0,2,3)
ShowMessage("【ルカ】")
ShowMessage("そんな事言って、腹が減っただけだろ……！")
ShowMessageFace("alice_fc1",2,0,2,4)
ShowMessage("【アリス】")
ShowMessage("ふっ、何を失礼な事を。")
ShowMessage("こうでもせねば、また魔物の誘惑に掛かるかもしれんだろう。")
ShowMessageFace("alice_fc1",2,0,2,5)
ShowMessage("【アリス】")
ShowMessage("だいたい、失礼とは思わんのか？")
ShowMessage("魔王たる余が側にいるのに、他の魔物の誘惑に揺らぐとは……")
ShowMessageFace("",0,0,2,6)
ShowMessage("【ルカ】")
ShowMessage("だからあのランプの魔女の時は、誘惑をはねつけたじゃないか")
ShowMessage("……！")
ShowMessageFace("",0,0,2,7)
ShowMessage("しかし、聞く耳は持ってくれないようだ。")
ShowMessage("僕はアリスに抱き寄せられ、眼前に大きな胸が迫ってくる。")
ShowMessageFace("",0,0,2,8)
ShowMessage("【ルカ】")
ShowMessage("……………………")
ShowMessageFace("",0,0,2,9)
ShowMessage("僕は思わず、その大きな胸をまじまじと見てしまった。")
ShowMessageFace("alice_fc1",2,0,2,10)
ShowMessage("【アリス】")
ShowMessage("どうした……？ そんなに胸をじろじろと見て……")
ShowMessageFace("",0,0,2,11)
ShowMessage("【ルカ】")
ShowMessage("み、見てないよ……！")
ShowMessageFace("alice_fc1",2,0,2,12)
ShowMessage("【アリス】")
ShowMessage("そう言えば……普段も、よく余の胸を横目で盗み見ているな。")
ShowMessage("この胸が、そんなにお気に入りなのか……？")
ShowMessageFace("",0,0,2,13)
ShowMessage("【ルカ】")
ShowMessage("ち、違うよ……！")
ShowMessage("そんなに横でゆさゆささせてるから、つい見ちゃうだけで……")
ShowMessageFace("alice_fc1",2,0,2,14)
ShowMessage("【アリス】")
ShowMessage("仕方ない奴だな、貴様は。")
ShowMessage("では、お気に入りの胸で楽しませてやるとしようか……")
245(bytes(0x04,0x08,0x6f,0x3a,0x0d,0x52,0x50,0x47,0x3a,0x3a,0x42,0x47,0x53,0x08,0x3a,0x0a,0x40,0x6e,0x61,0x6d,0x65,0x49,0x22,0x1e,0x6d,0x6f,0x6e,0x5f,0x68,0x73,0x65,0x61,0x6e,0x30,0x31,0x5f,0x69,0x6e,0x6e,0x65,0x72,0x77,0x6f,0x72,0x6b,0x73,0x5f,0x61,0x31,0x06,0x3a,0x06,0x45,0x54,0x3a,0x0c,0x40,0x76,0x6f,0x6c,0x75,0x6d,0x65,0x69,0x55,0x3a,0x0b,0x40,0x70,0x69,0x74,0x63,0x68,0x69,0x69))
PictureDisplay(5,"ev_alice_h05_1",0,0,0,0,100,100,255,0)
ShowMessageFace("",0,0,2,15)
ShowMessage("アリスは僕の服を剥ぎ取り、たちまち裸にした。")
ShowMessage("そして露わになった肉棒を、大きな胸でぎゅっと挟み込んでくる。")
ShowMessageFace("",0,0,2,16)
ShowMessage("【ルカ】")
ShowMessage("あぁぁぁぁ……")
ShowMessageFace("",0,0,2,17)
ShowMessage("アリスの双丘は驚くほど柔らかく、それでいながら弾力がある。")
ShowMessage("肉棒がむにゅっと埋まり、反発するかのように弾き返してくるのだ。")
ShowMessageFace("",0,0,2,18)
ShowMessage("そんなもので挟まれ、柔らかな圧迫感が肉棒を覆い尽くしていく。")
ShowMessage("それはまさに、柔らかく温かい天国に包まれるかのようだった。")
ShowMessageFace("alice_fc1",2,0,2,19)
ShowMessage("【アリス】")
ShowMessage("余の胸を盗み見ながら、こうされる事を想像していたのだろう")
ShowMessage("？")
ShowMessageFace("alice_fc1",2,0,2,20)
ShowMessage("【アリス】")
ShowMessage("この胸で、己の性器を挟み込まれたいと考えていたのだろう…")
ShowMessage("…？")
ShowMessageFace("",0,0,2,21)
ShowMessage("【ルカ】")
ShowMessage("そ、そんな事……考えてない……")
ShowMessageFace("alice_fc1",2,0,2,22)
ShowMessage("【アリス】")
ShowMessage("くくっ、いつまでそんな事が言えるかな……？")
ShowMessageFace("",0,0,2,23)
ShowMessage("アリスは自分の胸に手を添え、左右からじんわりと力を込めてきた。")
ShowMessage("肉棒は、まるでマシュマロのような弾力の胸に圧迫されていく。")
ShowMessageFace("",0,0,2,24)
ShowMessage("左右からの甘い圧迫が、じっくり肉棒を締め付けていく――")
ShowMessage("まるで、柔らかで温もりに満ちた楽園に埋もれていくかのような感覚だ。")
ShowMessageFace("",0,0,2,25)
ShowMessage("【ルカ】")
ShowMessage("あぅぅぅっ……")
ShowMessageFace("alice_fc1",2,0,2,26)
ShowMessage("【アリス】")
ShowMessage("これでも、まだ意地を張るのか……？")
ShowMessage("正直に言ってみろ……こういう事をされたかったのだろう？")
ShowMessageFace("",0,0,2,27)
ShowMessage("【ルカ】")
ShowMessage("そ、そんな事……ない……あぅぅぅ……")
ShowMessageFace("alice_fc1",2,0,2,28)
ShowMessage("【アリス】")
ShowMessage("ほぉら……余の乳で搾り取られてしまいたいだろう……？")
ShowMessageFace("",0,0,2,29)
ShowMessage("アリスはぎゅうぎゅうと胸で圧迫し、肉棒を責めたててくる。")
ShowMessage("時には胸全体を揺らすような動作で、たぷんたぷんと揺れる感触を与えた。")
ShowMessageFace("",0,0,2,30)
ShowMessage("カリ首が乳肉に擦れ、脱力するほどの快感を味わってしまう――")
ShowMessageFace("alice_fc1",2,0,2,31)
ShowMessage("【アリス】")
ShowMessage("ほらほら……認めてしまうがいい。")
ShowMessage("余の乳がずっと気になっていたとな……")
ShowMessageFace("",0,0,2,32)
ShowMessage("【ルカ】")
ShowMessage("違う……そんなの……あぅぅぅぅ……")
ShowMessageFace("",0,0,2,33)
ShowMessage("甘いパイズリ快楽をこらえながら、僕は意地を張る。")
246(1)
ShowMessageFace("",0,0,2,34)
ShowMessage("すると――不意に、胸での圧迫が緩んだ。")
ShowMessageFace("alice_fc1",2,0,2,35)
ShowMessage("【アリス】")
ShowMessage("認めないなら、やめてしまうぞ。")
ShowMessage("くくっ、それでもいいのか……？")
ShowMessageFace("",0,0,2,36)
ShowMessage("【ルカ】")
ShowMessage("え……？")
ShowMessageFace("",0,0,2,37)
ShowMessage("みるみる弱まっていく、乳房での刺激。")
ShowMessage("挟み込む力を徐々に緩められ、肉棒が圧迫から解放されていく。")
ShowMessageFace("",0,0,2,38)
ShowMessage("快楽はゆっくりと薄れ、そして突き上げるような焦燥感が沸き上がった。")
ShowMessage("まるで、心地良さが不完全燃焼に終わってしまうかのようだ――")
ShowMessageFace("alice_fc1",2,0,2,39)
ShowMessage("【アリス】")
ShowMessage("……そうか、余の胸で果てたくないのか。")
ShowMessage("この谷間に、思いっきり精液を迸らせる事ができたのにな……")
ShowMessageFace("",0,0,2,40)
ShowMessage("【ルカ】")
ShowMessage("あぅぅ……")
ShowMessageFace("",0,0,2,41)
ShowMessage("胸での圧迫はすっかりなくなり、ただ柔肌が触れているだけ。")
ShowMessage("すっかり薄れた快感の代わりに、じれったい感じが最高潮を迎えてしまう。")
ShowMessageFace("",0,0,2,42)
ShowMessage("【ルカ】")
ShowMessage("み、見てた……")
ShowMessageFace("alice_fc1",2,0,2,43)
ShowMessage("【アリス】")
ShowMessage("ん……？ 聞こえんな……？")
ShowMessageFace("",0,0,2,44)
ShowMessage("【ルカ】")
ShowMessage("アリスの胸、ずっと見てた……")
ShowMessage("だから、そのまま続けて……")
ShowMessageFace("alice_fc1",2,0,2,45)
ShowMessage("【アリス】")
ShowMessage("くくっ……とうとう認めたか。")
245(bytes(0x04,0x08,0x6f,0x3a,0x0d,0x52,0x50,0x47,0x3a,0x3a,0x42,0x47,0x53,0x08,0x3a,0x0a,0x40,0x6e,0x61,0x6d,0x65,0x49,0x22,0x1e,0x6d,0x6f,0x6e,0x5f,0x68,0x73,0x65,0x61,0x6e,0x30,0x31,0x5f,0x69,0x6e,0x6e,0x65,0x72,0x77,0x6f,0x72,0x6b,0x73,0x5f,0x61,0x31,0x06,0x3a,0x06,0x45,0x54,0x3a,0x0c,0x40,0x76,0x6f,0x6c,0x75,0x6d,0x65,0x69,0x55,0x3a,0x0b,0x40,0x70,0x69,0x74,0x63,0x68,0x69,0x69))
ShowMessageFace("",0,0,2,46)
ShowMessage("勝ち誇った表情で、にんまりと笑うアリス。")
ShowMessage("その両胸に、ぎゅっと力が込められる。")
ShowMessageFace("",0,0,2,47)
ShowMessage("【ルカ】")
ShowMessage("あ、あぁぁぁぁぁ……！！")
ShowMessageFace("",0,0,2,48)
ShowMessage("ふわふわの肉に挟まれ、ぎゅっと揉み潰されるような圧迫感。")
ShowMessage("再び乳肉での締め付けが与えられ、僕はだらしない声を漏らしてしまう。")
ShowMessageFace("alice_fc1",2,0,2,49)
ShowMessage("【アリス】")
ShowMessage("素直に認めたのだから、ご褒美をやらねばならんな。")
ShowMessage("ほぉら、余の乳で果てるがいい……！")
ShowMessageFace("",0,0,2,50)
ShowMessage("アリスは左右の乳をぎゅっと真ん中に寄せ、肉棒をきつく圧迫してくる。")
ShowMessage("そうしながら上下に軽く揺らし、たぷたぷ感を伝えてくるのだ。")
ShowMessageFace("",0,0,2,51)
ShowMessage("この上下の揺れは亀頭に直撃し、すべすべの肌が敏感な亀頭粘膜に擦れる。")
ShowMessage("また乳肉がカリ首を包み、たぷたぷと上下の揺れを伝えてきた。")
ShowMessageFace("",0,0,2,52)
ShowMessage("それは、明らかに射精へと導く目的の責めだった――")
ShowMessageFace("",0,0,2,53)
ShowMessage("【ルカ】")
ShowMessage("あぅぅ……すごいよぉ……")
ShowMessage("アリスのおっぱいに、出しちゃう……")
ShowMessageFace("alice_fc1",2,0,2,54)
ShowMessage("【アリス】")
ShowMessage("くくっ、構わんぞ……")
ShowMessage("余の乳に、子種をぶち撒けてしまえ……！")
ShowMessageFace("",0,0,2,55)
ShowMessage("【ルカ】")
ShowMessage("あ、あぁぁぁぁぁ――！！")
RunCommonEvent(104)
PictureDisplay(5,"ev_alice_h05_2",0,0,0,0,100,100,255,0)
RunCommonEvent(105)
ShowMessageFace("",0,0,2,56)
ShowMessage("僕は天国を味わいながら、胸の谷間で射精していた。")
ShowMessage("魅惑の乳を、精液がびゅるびゅると汚していく。")
ShowMessageFace("",0,0,2,57)
ShowMessage("アリスの豊満な胸が、僕の精液まみれになってしまった――")
246(1)
ShowMessageFace("alice_fc1",2,0,2,58)
ShowMessage("【アリス】")
ShowMessage("くくっ……どうだ？")
ShowMessage("お気に入りの乳を、自分の欲望まみれにしてしまった気分は…")
ShowMessage("…？")
ShowMessageFace("",0,0,2,59)
ShowMessage("【ルカ】")
ShowMessage("あぅぅぅぅぅ……")
ShowMessageFace("",0,0,2,60)
ShowMessage("甘い放出感を味わい、脱力する僕。")
ShowMessage("アリスは優越に満ちた笑みを浮かべながら、乳房に添えた両手に力を込める")
ShowMessage("。")
ShowMessageFace("alice_fc1",2,0,2,61)
ShowMessage("【アリス】")
ShowMessage("もう少し、胸で精を搾り出すとしよう。")
ShowMessage("次は、もっと激しくいくぞ……！")
ShowMessageFace("",0,0,2,62)
ShowMessage("【ルカ】")
ShowMessage("そ、そんな……あぅぅぅぅぅぅぅ！！")
245(bytes(0x04,0x08,0x6f,0x3a,0x0d,0x52,0x50,0x47,0x3a,0x3a,0x42,0x47,0x53,0x08,0x3a,0x0a,0x40,0x6e,0x61,0x6d,0x65,0x49,0x22,0x17,0x6d,0x6f,0x6e,0x5f,0x68,0x73,0x65,0x61,0x6e,0x31,0x37,0x5f,0x73,0x69,0x67,0x6f,0x6b,0x69,0x06,0x3a,0x06,0x45,0x54,0x3a,0x0c,0x40,0x76,0x6f,0x6c,0x75,0x6d,0x65,0x69,0x55,0x3a,0x0b,0x40,0x70,0x69,0x74,0x63,0x68,0x69,0x69))
ShowMessageFace("",0,0,2,63)
ShowMessage("今までとは異なる、激しい刺激が肉棒を襲ってきた。")
ShowMessage("アリスは、左右の乳を交互に上下するように動かしてきたのだ。")
ShowMessageFace("",0,0,2,64)
ShowMessage("しかも、今までより早く、激しい。")
ShowMessage("胸の谷間に囚われ、僕のモノは扱かれるような刺激を与えられた――")
ShowMessageFace("",0,0,2,65)
ShowMessage("【ルカ】")
ShowMessage("あぅぅぅぅ……こ、こんなの……")
ShowMessageFace("",0,0,2,66)
ShowMessage("胸の谷間に少しずつ汗が滴り、肌のすべすべ感に濡れた感触が加わる。")
ShowMessageFace("",0,0,2,67)
ShowMessage("そして、交互に上下する乳肉――まるで、胸の谷間で揉み潰されているかの")
ShowMessage("ようだ。")
ShowMessageFace("",0,0,2,68)
ShowMessage("時には動作に変化を与えられ、左右からぎゅうっと圧迫するように締められ")
ShowMessage("る。")
ShowMessageFace("",0,0,2,69)
ShowMessage("乳房が左右交互に動き、真ん中にきつく寄せられ――")
ShowMessage("変幻自在の乳責めに捕らえられ、僕のモノは胸の谷間で悦びに震えていた。")
ShowMessageFace("alice_fc1",2,0,2,70)
ShowMessage("【アリス】")
ShowMessage("ほらほらほら……余の責めに、どこまで耐えられる？")
ShowMessage("分かっているぞ、もう漏れてしまいそうなのだろう……？")
ShowMessageFace("",0,0,2,71)
ShowMessage("【ルカ】")
ShowMessage("あぅぅぅぅぅぅ……")
ShowMessageFace("",0,0,2,72)
ShowMessage("カリ首に乳肉がまとわりつき、擦れ、時にはむにゅりと埋まってしまう。")
ShowMessage("乳肉にめり込むと、柔らかな弾力をもって返された。")
ShowMessageFace("",0,0,2,73)
ShowMessage("時には左右の乳肉に同時に包み込まれ、弾力の逃げ場がない時がある。")
ShowMessageFace("",0,0,2,74)
ShowMessage("この時に味わう、亀頭が左右から揉み潰されるような刺激は、腰が震えるほ")
ShowMessage("どだった。")
ShowMessageFace("",0,0,2,75)
ShowMessage("いつしか尿道口からは先走りが垂れ、胸の谷間をねっとり濡らしてしまう。")
ShowMessageFace("alice_fc1",2,0,2,76)
ShowMessage("【アリス】")
ShowMessage("余の胸を汚し放題か……くくっ、贅沢だな。")
ShowMessage("さあ、そろそろ搾り出してしまうぞ……")
ShowMessageFace("",0,0,2,77)
ShowMessage("勝ち誇ったアリスは、強制射精を宣告する。")
ShowMessage("それと同時に乳肉が激しく上下し、ラストスパートをかけてきた。")
ShowMessageFace("",0,0,2,78)
ShowMessage("左右交互に躍動する乳肉が、亀頭からサオをを甘く揉み潰してくる。")
ShowMessage("その甘い刺激に、僕のモノはたやすく屈服の証を吐き出した――")
ShowMessageFace("",0,0,2,79)
ShowMessage("【ルカ】")
ShowMessage("あぁぁぁぁぁぁ――！！")
RunCommonEvent(104)
PictureDisplay(5,"ev_alice_h05_3",0,0,0,0,100,100,255,0)
RunCommonEvent(105)
ShowMessageFace("",0,0,2,80)
ShowMessage("ドクドクと溢れ出た精液が、再びアリスの胸を汚していく。")
ShowMessage("両乳はねっとりと糸引く白濁にまみれ、ドロドロになってしまった。")
ShowMessageFace("alice_fc1",2,0,2,81)
ShowMessage("【アリス】")
ShowMessage("くくっ……お気に入りの乳をこうまで汚して、満足だろう。")
ShowMessage("次は特別に、少しばかりサービスしてやろう……")
ShowMessageFace("",0,0,2,82)
ShowMessage("【ルカ】")
ShowMessage("え……？ まだ……？")
ShowMessageFace("",0,0,2,83)
ShowMessage("アリスの舌が伸び、胸の谷間から顔を出している亀頭にまとわりついてきた")
ShowMessage("。")
ShowMessage("そのまま、亀頭がねろねろと舐め回されてしまう。")
ShowMessageFace("",0,0,2,84)
ShowMessage("【ルカ】")
ShowMessage("あ……！ あひぃっ……！！")
ShowMessageFace("alice_fc1",2,0,2,85)
ShowMessage("【アリス】")
ShowMessage("余に舐めてもらえること、光栄に思うがいい……")
ShowMessageFace("",0,0,2,86)
ShowMessage("アリスの舌は亀頭に絡みつき、表面をじゅるじゅると舐め回す。")
ShowMessage("裏筋も尿道口も、ぬめった舌で嫐るように這い回られてしまった。")
ShowMessageFace("",0,0,2,87)
ShowMessage("それだけでも、腰が抜けてしまいそうな快感だ――")
ShowMessageFace("alice_fc1",2,0,2,88)
ShowMessage("【アリス】")
ShowMessage("ほぉら……舌だけではないぞ……")
ShowMessageFace("",0,0,2,89)
ShowMessage("そして、胸での刺激も再開された。")
ShowMessage("先程と同じようにぎゅっと圧迫され、交互に上下させて肉棒を翻弄するのだ")
ShowMessage("。")
ShowMessageFace("",0,0,2,90)
ShowMessage("胸の谷間から突き出した亀頭は、じゅるじゅると舌責めを受け――")
ShowMessageFace("",0,0,2,91)
ShowMessage("豊満な乳とねちっこい舌での同時責めにより、僕はみっともなく身悶えてし")
ShowMessage("まう。")
ShowMessageFace("",0,0,2,92)
ShowMessage("【ルカ】")
ShowMessage("あ、あひ……！ あぁぁぁぁぁぁ――！！")
ShowMessageFace("alice_fc1",2,0,2,93)
ShowMessage("【アリス】")
ShowMessage("やれやれ、他愛ないな……")
ShowMessage("貴様をよがらせ、射精させるなど簡単な事よ……")
ShowMessageFace("",0,0,2,94)
ShowMessage("舌はますます、亀頭全体にねちっこくまとわりついてきた。")
ShowMessage("先端部にじゅるじゅる這い回り、締め付け、絡みついてくるのだ。")
ShowMessageFace("",0,0,2,95)
ShowMessage("乳での圧迫もきつくなり、時にはリズミカルに上下させる。")
ShowMessage("サオ全体やカリを襲う柔肉の刺激に、僕は思わず腰を突き上げてしまった。")
ShowMessageFace("alice_fc1",2,0,2,96)
ShowMessage("【アリス】")
ShowMessage("くくく、腰を振ったな……")
ShowMessage("男の本能だろうが、乳責めで腰を振ってしまうなど屈辱だろう")
ShowMessage("……？")
ShowMessageFace("",0,0,2,97)
ShowMessage("【ルカ】")
ShowMessage("あぅぅぅぅぅぅ……")
ShowMessageFace("",0,0,2,98)
ShowMessage("言葉でも嫐られながら、じわじわと追い詰められていく。")
ShowMessage("僕は身も心もすっかりアリスに委ね、その乳や舌の刺激を味わっていた。")
ShowMessageFace("",0,0,2,99)
ShowMessage("このまま搾り出されてしまうのを、悦びながら受け入れてしまったのだ――")
ShowMessageFace("alice_fc1",2,0,2,100)
ShowMessage("【アリス】")
ShowMessage("くくっ、すっかり余の乳の虜か。")
ShowMessage("では、また果ててしまうがいい……")
ShowMessageFace("",0,0,2,101)
ShowMessage("ぎゅっ、と乳での圧迫がきつくなる。")
ShowMessage("それと同時に、亀頭にまとわりつく舌の動きがねちっこさを増した――")
ShowMessageFace("",0,0,2,102)
ShowMessage("【ルカ】")
ShowMessage("あ、あぁぁぁぁぁぁ――！！")
RunCommonEvent(104)
PictureDisplay(5,"ev_alice_h05_4",0,0,0,0,100,100,255,0)
RunCommonEvent(105)
ShowMessageFace("",0,0,2,103)
ShowMessage("舌に肉棒を絡め取られたまま、びゅくびゅくと精が漏れ出てしまう。")
ShowMessage("その舌にも胸の谷間にも白濁が粘り着き、ドロドロに汚していった。")
246(1)
ShowMessageFace("alice_fc1",2,0,2,104)
ShowMessage("【アリス】")
ShowMessage("んっ……相変わらず、貴様の精は美味いな。")
ShowMessage("もっと味わいたいが……そろそろ限界か。")
ShowMessageFace("",0,0,2,105)
ShowMessage("【ルカ】")
ShowMessage("あ、あぅぅぅぅぅぅ……")
ShowMessageFace("",0,0,2,106)
ShowMessage("甘い放出感と恍惚感が広がり、力が抜けていく。")
ShowMessage("このまま、全身がドロドロにとろけてしまいそうだ――")
ShowMessageFace("alice_fc1",2,0,2,107)
ShowMessage("【アリス】")
ShowMessage("これ以上搾れば、壊れてしまうか……")
ShowMessage("まあ、今日はここらで勘弁してやろう。")
ShowMessageFace("",0,0,2,108)
ShowMessage("【ルカ】")
ShowMessage("あぅぅぅぅぅ……")
221()
PictureClear(5)
ShowMessageFace("",0,0,2,109)
ShowMessage("身も心も衰弱し尽くし、意識が恍惚の中に沈んでいく。")
ShowMessageFace("",0,0,2,110)
ShowMessage("アリスのパイズリ強制射精は、僕を失神にまで追い込んでしまったのだった")
ShowMessage("――")
221()
PictureClear(5)
PictureClear(6)
246(2)
ShowMessageFace("",0,0,2,111)
ShowMessage("......")
242(2)
Wait(120)
241(bytes(0x04,0x08,0x6f,0x3a,0x0d,0x52,0x50,0x47,0x3a,0x3a,0x42,0x47,0x4d,0x08,0x3a,0x0a,0x40,0x6e,0x61,0x6d,0x65,0x49,0x22,0x0c,0x63,0x61,0x73,0x74,0x6c,0x65,0x36,0x06,0x3a,0x06,0x45,0x54,0x3a,0x0c,0x40,0x76,0x6f,0x6c,0x75,0x6d,0x65,0x69,0x69,0x3a,0x0b,0x40,0x70,0x69,0x74,0x63,0x68,0x69,0x69))
0()
