﻿// EVENT 7342
Name "Cresta: Match"

ChangeSwitch(96,96,0)
ChangeSwitch(98,98,0)
ShowMessageFace("mob_kaizoku2_fc1",0,0,2,1)
ShowMessage("\\n<Cresta>Then let's have a match.\nI'm going to use my ass. ♪")
PictureDisplay(5,"ev_mob_kaizoku2_hb1",0,0,120,0,100,100,255,0)
ChangeVariable(11,11,0,2,330,370)
311(0,1,1,1,11,true)
ShowMessageFace("",0,0,2,2)
ShowMessage("Cresta places her butt against Luka's crotch!\nHis penis is caught in her asscheeks and wrapped in their soft elasticity!\\D")
ShowMessage("Luka takes \\V[11] damage!")
ChangeVariable(27,27,0,3,3,1,2)
ChangeVariable(11,11,0,2,330,370)
311(0,1,1,1,11,true)
ShowMessageFace("",0,0,2,3)
ShowMessage("She cleverly covers Luka's glans using her panties!\nA feeling of pressure is given to his sensitive tip!\\D")
ShowMessage("Luka takes \\V[11] damage!")
ChangeVariable(27,27,0,3,3,1,2)
If(1,27,0,0,0)
 RunCommonEvent(7345)
 EndEventProcessing()
 0()
EndIf()
ShowMessageFace("mob_kaizoku2_fc1",0,0,2,4)
ShowMessage("\\n<Cresta>All right, my preparations are complete!\nNow then, let's get started!")
250(bytes(0x04,0x08,0x6f,0x3a,0x0c,0x52,0x50,0x47,0x3a,0x3a,0x53,0x45,0x08,0x3a,0x0a,0x40,0x6e,0x61,0x6d,0x65,0x49,0x22,0x12,0x6d,0x6f,0x6e,0x5f,0x65,0x72,0x6f,0x5f,0x6b,0x6f,0x6b,0x69,0x31,0x06,0x3a,0x06,0x45,0x54,0x3a,0x0b,0x40,0x70,0x69,0x74,0x63,0x68,0x69,0x69,0x3a,0x0c,0x40,0x76,0x6f,0x6c,0x75,0x6d,0x65,0x69,0x69))
ChangeVariable(11,11,0,2,330,370)
311(0,1,1,1,11,true)
ShowMessageFace("",0,0,2,5)
ShowMessage("Cresta slowly moves her hips!\nHer ass presses against Luka's penis, giving a soft stimulation!\\D")
ShowMessage("Luka takes \\V[11] damage!")
ChangeVariable(27,27,0,3,3,1,2)
If(1,27,0,0,0)
 RunCommonEvent(7346)
 EndEventProcessing()
 0()
EndIf()
ShowMessageFace("mob_kaizoku2_fc1",0,0,2,6)
ShowMessage("\\n<Cresta>My ass is soft, isn't it?\nI'll make you come like this!")
250(bytes(0x04,0x08,0x6f,0x3a,0x0c,0x52,0x50,0x47,0x3a,0x3a,0x53,0x45,0x08,0x3a,0x0a,0x40,0x6e,0x61,0x6d,0x65,0x49,0x22,0x12,0x6d,0x6f,0x6e,0x5f,0x65,0x72,0x6f,0x5f,0x6b,0x6f,0x6b,0x69,0x31,0x06,0x3a,0x06,0x45,0x54,0x3a,0x0b,0x40,0x70,0x69,0x74,0x63,0x68,0x69,0x69,0x3a,0x0c,0x40,0x76,0x6f,0x6c,0x75,0x6d,0x65,0x69,0x69))
ChangeVariable(11,11,0,2,330,370)
311(0,1,1,1,11,true)
ShowMessageFace("",0,0,2,7)
ShowMessage("Cresta sways her hips, stimulating Luka's penis with her ass as she drags it! Her soft elasticity squeezes his dick!\\D")
ShowMessage("Luka takes \\V[11] damage!")
ChangeVariable(27,27,0,3,3,1,2)
If(1,27,0,0,0)
 RunCommonEvent(7346)
 EndEventProcessing()
 0()
EndIf()
250(bytes(0x04,0x08,0x6f,0x3a,0x0c,0x52,0x50,0x47,0x3a,0x3a,0x53,0x45,0x08,0x3a,0x0a,0x40,0x6e,0x61,0x6d,0x65,0x49,0x22,0x12,0x6d,0x6f,0x6e,0x5f,0x65,0x72,0x6f,0x5f,0x6b,0x6f,0x6b,0x69,0x31,0x06,0x3a,0x06,0x45,0x54,0x3a,0x0b,0x40,0x70,0x69,0x74,0x63,0x68,0x69,0x69,0x3a,0x0c,0x40,0x76,0x6f,0x6c,0x75,0x6d,0x65,0x69,0x69))
ChangeVariable(11,11,0,2,330,370)
311(0,1,1,1,11,true)
ShowMessageFace("",0,0,2,8)
ShowMessage("Her panties tug against Luka's glans, stimulating it!\nThe soft cloth rubbing against his glans gives a sweet feeling of pleasure!\\D")
ShowMessage("Luka takes \\V[11] damage!")
ChangeVariable(27,27,0,3,3,1,2)
If(1,27,0,0,0)
 RunCommonEvent(7346)
 EndEventProcessing()
 0()
EndIf()
If(1,27,0,175,4)
 ShowMessageFace("ruka_fc1",0,0,2,9)
 ShowMessage("\\n<Luka>Ah, ahh...")
 ShowMessageFace("mob_kaizoku2_fc1",0,0,2,10)
 ShowMessage("\\n<Cresta>Aha, it doesn't look like you hold on any longer? Resign yourself, you'll be spraying semen on my ass at this rate!")
 0()
Else()
 ShowMessageFace("mob_kaizoku2_fc1",0,0,2,11)
 ShowMessage("\\n<Cresta>I'm not done yet!\nI'll have you spraying semen on my ass!")
 0()
EndIf()
250(bytes(0x04,0x08,0x6f,0x3a,0x0c,0x52,0x50,0x47,0x3a,0x3a,0x53,0x45,0x08,0x3a,0x0a,0x40,0x6e,0x61,0x6d,0x65,0x49,0x22,0x12,0x6d,0x6f,0x6e,0x5f,0x65,0x72,0x6f,0x5f,0x6b,0x6f,0x6b,0x69,0x31,0x06,0x3a,0x06,0x45,0x54,0x3a,0x0b,0x40,0x70,0x69,0x74,0x63,0x68,0x69,0x69,0x3a,0x0c,0x40,0x76,0x6f,0x6c,0x75,0x6d,0x65,0x69,0x69))
ChangeVariable(11,11,0,2,330,370)
311(0,1,1,1,11,true)
ShowMessageFace("",0,0,2,12)
ShowMessage("Cresta bounces her hips, crushing Luka's penis!\nHis penis is squeezed by the pressure of her soft asscheeks!\\D")
ShowMessage("Luka takes \\V[11] damage!")
ChangeVariable(27,27,0,3,3,1,2)
If(1,27,0,0,0)
 RunCommonEvent(7346)
 EndEventProcessing()
 0()
EndIf()
250(bytes(0x04,0x08,0x6f,0x3a,0x0c,0x52,0x50,0x47,0x3a,0x3a,0x53,0x45,0x08,0x3a,0x0a,0x40,0x6e,0x61,0x6d,0x65,0x49,0x22,0x12,0x6d,0x6f,0x6e,0x5f,0x65,0x72,0x6f,0x5f,0x6b,0x6f,0x6b,0x69,0x31,0x06,0x3a,0x06,0x45,0x54,0x3a,0x0b,0x40,0x70,0x69,0x74,0x63,0x68,0x69,0x69,0x3a,0x0c,0x40,0x76,0x6f,0x6c,0x75,0x6d,0x65,0x69,0x69))
ChangeVariable(11,11,0,2,330,370)
311(0,1,1,1,11,true)
ShowMessageFace("",0,0,2,13)
ShowMessage("She vigorously pulls her panties!\nA tight stimulation is given to Luka's glans!\\D")
ShowMessage("Luka takes \\V[11] damage!")
ChangeVariable(27,27,0,3,3,1,2)
If(1,27,0,0,0)
 RunCommonEvent(7346)
 EndEventProcessing()
 0()
EndIf()
ShowMessageFace("mob_kaizoku2_fc1",0,0,2,14)
ShowMessage("\\n<Cresta>Aha, does it feel good?\nYou won't be able to endure it for long!")
250(bytes(0x04,0x08,0x6f,0x3a,0x0c,0x52,0x50,0x47,0x3a,0x3a,0x53,0x45,0x08,0x3a,0x0a,0x40,0x6e,0x61,0x6d,0x65,0x49,0x22,0x12,0x6d,0x6f,0x6e,0x5f,0x65,0x72,0x6f,0x5f,0x6b,0x6f,0x6b,0x69,0x31,0x06,0x3a,0x06,0x45,0x54,0x3a,0x0b,0x40,0x70,0x69,0x74,0x63,0x68,0x69,0x69,0x3a,0x0c,0x40,0x76,0x6f,0x6c,0x75,0x6d,0x65,0x69,0x69))
ChangeVariable(11,11,0,2,330,370)
311(0,1,1,1,11,true)
ShowMessageFace("",0,0,2,15)
ShowMessage("Cresta slowly shifts her hips to torture Luka's penis!\nHis penis is softly stimulated as it rubs against her ass!\\D")
ShowMessage("Luka takes \\V[11] damage!")
ChangeVariable(27,27,0,3,3,1,2)
If(1,27,0,0,0)
 RunCommonEvent(7346)
 EndEventProcessing()
 0()
EndIf()
250(bytes(0x04,0x08,0x6f,0x3a,0x0c,0x52,0x50,0x47,0x3a,0x3a,0x53,0x45,0x08,0x3a,0x0a,0x40,0x6e,0x61,0x6d,0x65,0x49,0x22,0x12,0x6d,0x6f,0x6e,0x5f,0x65,0x72,0x6f,0x5f,0x6b,0x6f,0x6b,0x69,0x31,0x06,0x3a,0x06,0x45,0x54,0x3a,0x0b,0x40,0x70,0x69,0x74,0x63,0x68,0x69,0x69,0x3a,0x0c,0x40,0x76,0x6f,0x6c,0x75,0x6d,0x65,0x69,0x69))
ChangeVariable(11,11,0,2,330,370)
311(0,1,1,1,11,true)
ShowMessageFace("",0,0,2,16)
ShowMessage("She skillfully moves her panties!\nThe friction of her cloth rubs against Luka's glans!\\D")
ShowMessage("Luka takes \\V[11] damage!")
ChangeVariable(27,27,0,3,3,1,2)
If(1,27,0,0,0)
 RunCommonEvent(7346)
 EndEventProcessing()
 0()
EndIf()
ShowMessageFace("mob_kaizoku2_fc1",0,0,2,17)
ShowMessage("\\n<Cresta>Okay, now for the finish!\nSpray your semen all over my ass!")
250(bytes(0x04,0x08,0x6f,0x3a,0x0c,0x52,0x50,0x47,0x3a,0x3a,0x53,0x45,0x08,0x3a,0x0a,0x40,0x6e,0x61,0x6d,0x65,0x49,0x22,0x12,0x6d,0x6f,0x6e,0x5f,0x65,0x72,0x6f,0x5f,0x6b,0x6f,0x6b,0x69,0x31,0x06,0x3a,0x06,0x45,0x54,0x3a,0x0b,0x40,0x70,0x69,0x74,0x63,0x68,0x69,0x69,0x3a,0x0c,0x40,0x76,0x6f,0x6c,0x75,0x6d,0x65,0x69,0x69))
ChangeVariable(11,11,0,2,330,370)
311(0,1,1,1,11,true)
ShowMessageFace("",0,0,2,18)
ShowMessage("Cresta bounces and grinds her hips!\nLuka's penis is crushed by the soft flesh of her ass!\\D")
ShowMessage("Luka takes \\V[11] damage!")
ChangeVariable(27,27,0,3,3,1,2)
If(1,27,0,0,0)
 RunCommonEvent(7346)
 EndEventProcessing()
 0()
EndIf()
RunCommonEvent(7344)
EndEventProcessing()
0()
