﻿// EVENT 7015
Name "Eri: Defeat"

RunCommonEvent(7000)
PictureDisplay(5,"80_mob_murabito1_st01",0,0,0,0,100,100,255,0)
PictureClear(6)
ShowMessageFace("mob_murabito1_fc1",0,0,2,1)
ShowMessage("\\n<Eri>Since I won, that'll be 20G please.\nIt was worth it though, right?")
125(1,0,20)
ShowMessageFace("",0,0,2,2)
ShowMessage("Luka hands over 20G.")
ShowMessageFace("mob_murabito1_fc1",0,0,2,3)
ShowMessage("\\n<Eri>If you ever want to taste my oral technique again, I'll be here. I'll gladly suck you off for another 20G.")
If(0,2331,1)
 PictureClear(5)
 281(1)
 TeleportPlayer(0,29,47,14,2,0)
 216(0)
 0()
EndIf()
EndEventProcessing()
0()
