﻿// EVENT 0640
Name "Event: MP Consumption Halved"

ChangeSwitch(73,73,0)
If(0,70,0)
 ShowMessageFace("kamuro_fc1",0,0,2,1)
 ShowMessage("\\n<Two-Tailed Brown Kitsune>Please be careful...")
 ChangeSwitch(73,73,1)
 EndEventProcessing()
 0()
EndIf()
ShowMessageFace("kamuro_fc1",0,0,2,2)
ShowMessage("\\n<Two-Tailed Brown Kitsune>I'm not perfect, but please let me help you...!")
ChangeSwitch(70,70,0)
250(bytes(0x04,0x08,0x6f,0x3a,0x0c,0x52,0x50,0x47,0x3a,0x3a,0x53,0x45,0x08,0x3a,0x0a,0x40,0x6e,0x61,0x6d,0x65,0x49,0x22,0x0a,0x48,0x65,0x61,0x6c,0x37,0x06,0x3a,0x06,0x45,0x54,0x3a,0x0b,0x40,0x70,0x69,0x74,0x63,0x68,0x69,0x69,0x3a,0x0c,0x40,0x76,0x6f,0x6c,0x75,0x6d,0x65,0x69,0x55))
ShowMessageFace("",0,0,2,3)
ShowMessage("The Two-Tailed Brown Kitsune gives you the blessing of the Kitsune! MP consumption in battles is halved until the next boss floor!")
ChangeSwitch(73,73,1)
EndEventProcessing()
0()
