﻿// EVENT 0903
Name "Chaotic Labyrinth Treasure Chests"

ChangeSwitch(73,73,0)
ChangeVariable(12,12,0,2,1,100)
If(0,49,0)
 ChangeVariable(12,12,0,2,51,99)
 0()
EndIf()
If(1,12,0,50,2)
 RunCommonEvent(797)
 ChangeSwitch(73,73,1)
 EndEventProcessing()
 0()
EndIf()
If(1,12,0,95,2)
 RunCommonEvent(798)
 ChangeSwitch(73,73,1)
 EndEventProcessing()
 0()
EndIf()
If(1,12,0,99,2)
 RunCommonEvent(799)
 ChangeSwitch(73,73,1)
 EndEventProcessing()
 0()
EndIf()
If(1,12,0,100,0)
 ChangeVariable(12,12,0,2,1,4)
 If(1,12,0,2,2)
  ShowMessageFace("",0,0,2,1)
  ShowMessage("The treasure chest was a Mimic!")
  Battle(0,551,false,false)
  ChangeSwitch(73,73,1)
  EndEventProcessing()
  0()
 EndIf()
 If(1,12,0,3,0)
  ShowMessageFace("",0,0,2,2)
  ShowMessage("A Honey Pot was hidden in the treasure chest!")
  Battle(0,552,false,false)
  ChangeSwitch(73,73,1)
  EndEventProcessing()
  0()
 EndIf()
 If(1,12,0,4,0)
  ShowMessageFace("",0,0,2,3)
  ShowMessage("The treasure chest was a Boxed Girl!")
  Battle(0,553,false,false)
  ChangeSwitch(73,73,1)
  EndEventProcessing()
  0()
 EndIf()
 0()
EndIf()
0()
