﻿
DisplayName "Southern Undersea Temple"



EVENT   1
 PAGE   1
  0()



EVENT   2
 PAGE   1
  0()



EVENT   3
 PAGE   1
  0()
 PAGE   2
  // condition: switch 31 is ON
  0()



EVENT   4
 PAGE   1
  0()
 PAGE   2
  // condition: switch 31 is ON
  0()



EVENT   5
 PAGE   1
  0()
 PAGE   2
  // condition: switch 31 is ON
  0()



EVENT   6
 PAGE   1
  ShowMessageFace("poseidones_fc1",1,0,2,1)
  ShowMessage("\\n<Poseidoness>Wah-hahahaha!")
  ShowMessageFace("kraken_fc1",1,0,2,2)
  ShowMessage("\\n<Kraken>Wah-hahahaha!")
  ShowMessageFace("poseidones_fc1",1,0,2,3)
  ShowMessage("\\n<Poseidoness>*glug* *glug* *glug*")
  ShowMessageFace("kraken_fc1",1,0,2,4)
  ShowMessage("\\n<Kraken>...Seconds!")
  ShowMessageFace("sonia_fc4",0,0,2,5)
  ShowMessage("\\n<Sonya>The Dragon Palace is just the Undersea Temple, isn't it? They're in complete feasting mode...")
  ShowMessageFace("saki_fc1",3,0,2,6)
  ShowMessage("\\n<Saki>Lalalaaaa♪ Dragon Palace Dance♪")
  ShowMessageFace("wakame_fc1",1,0,2,7)
  ShowMessage("\\n<Wakame>Lalala...☆")
  ShowMessageFace("kraken_fc1",1,0,2,8)
  ShowMessage("\\n<Kraken>Yes, that footwork...\nYour steps and turns are both magnificent.")
  ShowMessageFace("poseidones_fc1",1,0,2,9)
  ShowMessage("\\n<Poseidoness>Wahaha, don't start drinking too!")
  ShowMessageFace("kaniloid_fc1",2,0,2,10)
  ShowMessage("\\n<Jillian>...Why me?")
  250(bytes(0x04,0x08,0x6f,0x3a,0x0c,0x52,0x50,0x47,0x3a,0x3a,0x53,0x45,0x08,0x3a,0x0a,0x40,0x6e,0x61,0x6d,0x65,0x49,0x22,0x0a,0x49,0x74,0x65,0x6d,0x31,0x06,0x3a,0x06,0x45,0x54,0x3a,0x0b,0x40,0x70,0x69,0x74,0x63,0x68,0x69,0x69,0x3a,0x0c,0x40,0x76,0x6f,0x6c,0x75,0x6d,0x65,0x69,0x55))
  318(0,128,0,2044)
  ShowMessageFace("",0,0,2,11)
  ShowMessage("Saki learned \\I[176]\\C[1]Dragon Palace Dance\\C[0]!")
  ShowMessage("Wakame learned \\I[176]\\C[1]Dragon Palace Dance\\C[0]!")
  ShowMessage("Jillian learned \\I[176]\\C[1]Dragon Palace Dance\\C[0]!")
  ChangeSwitch(31,31,0)
  ShowMessageFace("saki_fc1",0,0,2,12)
  ShowMessage("\\n<Saki>Then next is the Ripple Dance isn't it?\nSaki has a lot of marine dances to master☆")
  ShowMessageFace("poseidones_fc1",0,0,2,13)
  ShowMessage("\\n<Poseidoness>Ripple Dance?\nIf that's the case, then I'll have to clean up for the Ripple Trial...")
  ShowMessageFace("kraken_fc1",0,0,2,14)
  ShowMessage("\\n<Kraken>But wait a minute.\nIt takes time to prepare for extra training...")
  ShowMessageFace("wakame_fc1",2,0,2,15)
  ShowMessage("\\n<Wakame>There's going to be another trial...?")
  ShowMessageFace("saki_fc1",2,0,2,16)
  ShowMessage("\\n<Saki>If it's a dance lesson, Saki will endure it no matter how harsh it is... This weird trial has already filled my stomach.")
  241(bytes(0x04,0x08,0x6f,0x3a,0x0d,0x52,0x50,0x47,0x3a,0x3a,0x42,0x47,0x4d,0x08,0x3a,0x0a,0x40,0x6e,0x61,0x6d,0x65,0x49,0x22,0x0a,0x73,0x74,0x65,0x69,0x6e,0x06,0x3a,0x06,0x45,0x54,0x3a,0x0c,0x40,0x76,0x6f,0x6c,0x75,0x6d,0x65,0x69,0x69,0x3a,0x0b,0x40,0x70,0x69,0x74,0x63,0x68,0x69,0x69))
  ShowMessageFace("",0,0,2,17)
  ShowMessage("\\n<？？？>Fufufu, just as I expected...")
  Wait(30)
  ChangeSwitch(32,32,0)
  205(8,bytes(0x04,0x08,0x6f,0x3a,0x13,0x52,0x50,0x47,0x3a,0x3a,0x4d,0x6f,0x76,0x65,0x52,0x6f,0x75,0x74,0x65,0x09,0x3a,0x0c,0x40,0x72,0x65,0x70,0x65,0x61,0x74,0x46,0x3a,0x0f,0x40,0x73,0x6b,0x69,0x70,0x70,0x61,0x62,0x6c,0x65,0x46,0x3a,0x0a,0x40,0x77,0x61,0x69,0x74,0x54,0x3a,0x0a,0x40,0x6c,0x69,0x73,0x74,0x5b,0x08,0x6f,0x3a,0x15,0x52,0x50,0x47,0x3a,0x3a,0x4d,0x6f,0x76,0x65,0x43,0x6f,0x6d,0x6d,0x61,0x6e,0x64,0x07,0x3a,0x0a,0x40,0x63,0x6f,0x64,0x65,0x69,0x13,0x3a,0x10,0x40,0x70,0x61,0x72,0x61,0x6d,0x65,0x74,0x65,0x72,0x73,0x5b,0x07,0x69,0x08,0x69,0xfa,0x6f,0x3b,0x0a,0x07,0x3b,0x0b,0x69,0x18,0x3b,0x0c,0x5b,0x00,0x6f,0x3b,0x0a,0x07,0x3b,0x0b,0x69,0x00,0x3b,0x0c,0x5b,0x00))
  Wait(30)
  ShowMessageFace("stein_fc2",1,0,2,18)
  ShowMessage("\\n<Promestein>This kind of trial was a waste of time.\nIt's just irrational spiritualism in the end.")
  241(bytes(0x04,0x08,0x6f,0x3a,0x0d,0x52,0x50,0x47,0x3a,0x3a,0x42,0x47,0x4d,0x08,0x3a,0x0a,0x40,0x6e,0x61,0x6d,0x65,0x49,0x22,0x11,0x73,0x63,0x65,0x6e,0x65,0x5f,0x64,0x61,0x6e,0x63,0x65,0x32,0x06,0x3a,0x06,0x45,0x54,0x3a,0x0c,0x40,0x76,0x6f,0x6c,0x75,0x6d,0x65,0x69,0x69,0x3a,0x0b,0x40,0x70,0x69,0x74,0x63,0x68,0x69,0x69))
  ShowMessageFace("poseidones_fc1",0,0,2,19)
  ShowMessage("\\n<Poseidoness>What is this unsettling BGM?\nIt's making my sake go bad, I'm putting it away...")
  205(8,bytes(0x04,0x08,0x6f,0x3a,0x13,0x52,0x50,0x47,0x3a,0x3a,0x4d,0x6f,0x76,0x65,0x52,0x6f,0x75,0x74,0x65,0x09,0x3a,0x0c,0x40,0x72,0x65,0x70,0x65,0x61,0x74,0x46,0x3a,0x0f,0x40,0x73,0x6b,0x69,0x70,0x70,0x61,0x62,0x6c,0x65,0x46,0x3a,0x0a,0x40,0x77,0x61,0x69,0x74,0x54,0x3a,0x0a,0x40,0x6c,0x69,0x73,0x74,0x5b,0x07,0x6f,0x3a,0x15,0x52,0x50,0x47,0x3a,0x3a,0x4d,0x6f,0x76,0x65,0x43,0x6f,0x6d,0x6d,0x61,0x6e,0x64,0x07,0x3a,0x0a,0x40,0x63,0x6f,0x64,0x65,0x69,0x15,0x3a,0x10,0x40,0x70,0x61,0x72,0x61,0x6d,0x65,0x74,0x65,0x72,0x73,0x5b,0x00,0x6f,0x3b,0x0a,0x07,0x3b,0x0b,0x69,0x00,0x3b,0x0c,0x5b,0x00))
  ShowMessageFace("stein_fc2",2,0,2,20)
  ShowMessage("\\n<Promestein>Ahhh...")
  205(8,bytes(0x04,0x08,0x6f,0x3a,0x13,0x52,0x50,0x47,0x3a,0x3a,0x4d,0x6f,0x76,0x65,0x52,0x6f,0x75,0x74,0x65,0x09,0x3a,0x0c,0x40,0x72,0x65,0x70,0x65,0x61,0x74,0x46,0x3a,0x0f,0x40,0x73,0x6b,0x69,0x70,0x70,0x61,0x62,0x6c,0x65,0x46,0x3a,0x0a,0x40,0x77,0x61,0x69,0x74,0x54,0x3a,0x0a,0x40,0x6c,0x69,0x73,0x74,0x5b,0x07,0x6f,0x3a,0x15,0x52,0x50,0x47,0x3a,0x3a,0x4d,0x6f,0x76,0x65,0x43,0x6f,0x6d,0x6d,0x61,0x6e,0x64,0x07,0x3a,0x0a,0x40,0x63,0x6f,0x64,0x65,0x69,0x18,0x3a,0x10,0x40,0x70,0x61,0x72,0x61,0x6d,0x65,0x74,0x65,0x72,0x73,0x5b,0x00,0x6f,0x3b,0x0a,0x07,0x3b,0x0b,0x69,0x00,0x3b,0x0c,0x5b,0x00))
  ShowMessageFace("stein_fc2",1,0,2,21)
  ShowMessage("\\n<Promestein>Anyways, there won't be any need for more trials with this injection. If you become a sea-dweller, you should be able to learn dances unique to their race.")
  ShowMessageFace("stein_fc2",0,0,2,22)
  ShowMessage("\\n<Promestein>However, this drug is still being researched.\nIt is somewhat incomplete, so consider this a clinical experiment.")
  ShowMessageFace("ruka_fc1",0,0,2,23)
  ShowMessage("\\n<Luka>Maybe there will be side effects...?")
  ShowMessageFace("stein_fc2",0,0,2,24)
  ShowMessage("\\n<Promestein>Not at all... On the contrary, the effects might be too weak. If you aren't someone with a very high aptitude, you won't feel any changes.")
  ShowMessageFace("stein_fc2",0,0,2,25)
  ShowMessage("\\n<Promestein>Not everyone can become a sea-dweller...\nDo you want me to administer this drug?")
  ShowMessageFace("saki_fc1",3,0,2,26)
  ShowMessage("\\n<Saki>Of course, Saki accepts your challenge☆")
  ShowMessageFace("wakame_fc1",1,0,2,27)
  ShowMessage("\\n<Wakame>...I'll do it☆")
  ShowMessageFace("kaniloid_fc1",1,0,2,28)
  ShowMessage("\\n<Jullian>Hmph, if that's what you want.")
  205(4,bytes(0x04,0x08,0x6f,0x3a,0x13,0x52,0x50,0x47,0x3a,0x3a,0x4d,0x6f,0x76,0x65,0x52,0x6f,0x75,0x74,0x65,0x09,0x3a,0x0c,0x40,0x72,0x65,0x70,0x65,0x61,0x74,0x46,0x3a,0x0f,0x40,0x73,0x6b,0x69,0x70,0x70,0x61,0x62,0x6c,0x65,0x46,0x3a,0x0a,0x40,0x77,0x61,0x69,0x74,0x54,0x3a,0x0a,0x40,0x6c,0x69,0x73,0x74,0x5b,0x07,0x6f,0x3a,0x15,0x52,0x50,0x47,0x3a,0x3a,0x4d,0x6f,0x76,0x65,0x43,0x6f,0x6d,0x6d,0x61,0x6e,0x64,0x07,0x3a,0x0a,0x40,0x63,0x6f,0x64,0x65,0x69,0x17,0x3a,0x10,0x40,0x70,0x61,0x72,0x61,0x6d,0x65,0x74,0x65,0x72,0x73,0x5b,0x00,0x6f,0x3b,0x0a,0x07,0x3b,0x0b,0x69,0x00,0x3b,0x0c,0x5b,0x00))
  205(5,bytes(0x04,0x08,0x6f,0x3a,0x13,0x52,0x50,0x47,0x3a,0x3a,0x4d,0x6f,0x76,0x65,0x52,0x6f,0x75,0x74,0x65,0x09,0x3a,0x0c,0x40,0x72,0x65,0x70,0x65,0x61,0x74,0x46,0x3a,0x0f,0x40,0x73,0x6b,0x69,0x70,0x70,0x61,0x62,0x6c,0x65,0x46,0x3a,0x0a,0x40,0x77,0x61,0x69,0x74,0x54,0x3a,0x0a,0x40,0x6c,0x69,0x73,0x74,0x5b,0x07,0x6f,0x3a,0x15,0x52,0x50,0x47,0x3a,0x3a,0x4d,0x6f,0x76,0x65,0x43,0x6f,0x6d,0x6d,0x61,0x6e,0x64,0x07,0x3a,0x0a,0x40,0x63,0x6f,0x64,0x65,0x69,0x16,0x3a,0x10,0x40,0x70,0x61,0x72,0x61,0x6d,0x65,0x74,0x65,0x72,0x73,0x5b,0x00,0x6f,0x3b,0x0a,0x07,0x3b,0x0b,0x69,0x00,0x3b,0x0c,0x5b,0x00))
  205(8,bytes(0x04,0x08,0x6f,0x3a,0x13,0x52,0x50,0x47,0x3a,0x3a,0x4d,0x6f,0x76,0x65,0x52,0x6f,0x75,0x74,0x65,0x09,0x3a,0x0c,0x40,0x72,0x65,0x70,0x65,0x61,0x74,0x46,0x3a,0x0f,0x40,0x73,0x6b,0x69,0x70,0x70,0x61,0x62,0x6c,0x65,0x46,0x3a,0x0a,0x40,0x77,0x61,0x69,0x74,0x46,0x3a,0x0a,0x40,0x6c,0x69,0x73,0x74,0x5b,0x0e,0x6f,0x3a,0x15,0x52,0x50,0x47,0x3a,0x3a,0x4d,0x6f,0x76,0x65,0x43,0x6f,0x6d,0x6d,0x61,0x6e,0x64,0x07,0x3a,0x0a,0x40,0x63,0x6f,0x64,0x65,0x69,0x13,0x3a,0x10,0x40,0x70,0x61,0x72,0x61,0x6d,0x65,0x74,0x65,0x72,0x73,0x5b,0x07,0x69,0x00,0x69,0xf9,0x6f,0x3b,0x0a,0x07,0x3b,0x0b,0x69,0x18,0x3b,0x0c,0x5b,0x00,0x6f,0x3b,0x0a,0x07,0x3b,0x0b,0x69,0x14,0x3b,0x0c,0x5b,0x06,0x69,0x23,0x6f,0x3b,0x0a,0x07,0x3b,0x0b,0x69,0x13,0x3b,0x0c,0x5b,0x07,0x69,0xfa,0x69,0x00,0x6f,0x3b,0x0a,0x07,0x3b,0x0b,0x69,0x16,0x3b,0x0c,0x5b,0x00,0x6f,0x3b,0x0a,0x07,0x3b,0x0b,0x69,0x14,0x3b,0x0c,0x5b,0x06,0x69,0x23,0x6f,0x3b,0x0a,0x07,0x3b,0x0b,0x69,0x13,0x3b,0x0c,0x5b,0x07,0x69,0x07,0x69,0x00,0x6f,0x3b,0x0a,0x07,0x3b,0x0b,0x69,0x17,0x3b,0x0c,0x5b,0x00,0x6f,0x3b,0x0a,0x07,0x3b,0x0b,0x69,0x00,0x3b,0x0c,0x5b,0x00))
  ShowMessageFace("stein_fc2",1,0,2,29)
  ShowMessage("\\n<Promestein>Okay then... Inject!")
  ShowMessageFace("",0,0,2,30)
  ShowMessage("Promestein injected the three of them with the drug!")
  ShowMessageFace("saki_fc1",0,0,2,31)
  ShowMessage("\\n<Saki>Hmm, what's this...?\nSaki feels like she's swimming in a calm ocean☆")
  ShowMessageFace("wakame_fc1",1,0,2,32)
  ShowMessage("\\n<Wakame>Seaweed also feels the ocean...♪")
  ShowMessageFace("kaniloid_fc1",1,0,2,33)
  ShowMessage("\\n<Jillian>Hmm... The sea genes appear to be taking root in me...")
  ShowMessageFace("stein_fc2",1,0,2,34)
  ShowMessage("\\n<Promestein>Wow, all three of them have a high aptitude!\nAmazing, this is a splendid outcome!")
  250(bytes(0x04,0x08,0x6f,0x3a,0x0c,0x52,0x50,0x47,0x3a,0x3a,0x53,0x45,0x08,0x3a,0x0a,0x40,0x6e,0x61,0x6d,0x65,0x49,0x22,0x11,0x6d,0x6f,0x6e,0x5f,0x66,0x61,0x6e,0x66,0x61,0x6c,0x65,0x32,0x06,0x3a,0x06,0x45,0x54,0x3a,0x0b,0x40,0x70,0x69,0x74,0x63,0x68,0x69,0x69,0x3a,0x0c,0x40,0x76,0x6f,0x6c,0x75,0x6d,0x65,0x69,0x69))
  355("set_class_level(114, 301, 10, false, false)")
  655("set_class_level(114, 306, 10, false, true)")
  655("set_class_level(155, 301, 10, false, false)")
  655("set_class_level(155, 306, 10, false, true)")
  655("set_class_level(128, 301, 10, false, true)")
  ShowMessageFace("",0,0,2,35)
  ShowMessage("All three of them have changed race to Sea Dweller!")
  205(8,bytes(0x04,0x08,0x6f,0x3a,0x13,0x52,0x50,0x47,0x3a,0x3a,0x4d,0x6f,0x76,0x65,0x52,0x6f,0x75,0x74,0x65,0x09,0x3a,0x0c,0x40,0x72,0x65,0x70,0x65,0x61,0x74,0x46,0x3a,0x0f,0x40,0x73,0x6b,0x69,0x70,0x70,0x61,0x62,0x6c,0x65,0x46,0x3a,0x0a,0x40,0x77,0x61,0x69,0x74,0x46,0x3a,0x0a,0x40,0x6c,0x69,0x73,0x74,0x5b,0x08,0x6f,0x3a,0x15,0x52,0x50,0x47,0x3a,0x3a,0x4d,0x6f,0x76,0x65,0x43,0x6f,0x6d,0x6d,0x61,0x6e,0x64,0x07,0x3a,0x0a,0x40,0x63,0x6f,0x64,0x65,0x69,0x07,0x3a,0x10,0x40,0x70,0x61,0x72,0x61,0x6d,0x65,0x74,0x65,0x72,0x73,0x5b,0x00,0x6f,0x3b,0x0a,0x07,0x3b,0x0b,0x69,0x07,0x3b,0x0c,0x5b,0x00,0x6f,0x3b,0x0a,0x07,0x3b,0x0b,0x69,0x00,0x3b,0x0c,0x5b,0x00))
  ShowMessageFace("stein_fc2",1,0,2,36)
  ShowMessage("\\n<Promestein>Addiontally... An idea suddenly flashed into my mind.")
  ShowMessageFace("stein_fc2",1,0,2,37)
  ShowMessage("\\n<Promestein>Seaweed is the most primitive plant species.\nI'll collect some seaweed cells which have adapted into a sea-dweller.")
  ShowMessageFace("wakame_fc1",1,0,2,38)
  ShowMessage("\\n<Wakame>They'll be delicious once you put them into a miso soup...")
  ShowMessageFace("stein_fc2",1,0,2,39)
  ShowMessage("\\n<Promestein>Then we'll have a delicious meal, and use the leftover for the experiment. Perhaps this could allow plants to be converted into sea-dwellers!")
  ShowMessageFace("poseidones_fc1",1,0,2,40)
  ShowMessage("\\n<Poseidoness>I don't know what that is, but I'll be happy to eat it anyways!")
  ShowMessageFace("kraken_fc1",1,0,2,41)
  ShowMessage("\\n<Kraken>Wah-hahahaha!")
  ShowMessageFace("poseidones_fc1",1,0,2,42)
  ShowMessage("\\n<Poseidoness>*glug* *glug* *glug*...")
  If(4,75,0)
   ShowMessageFace("hituzi_fc1",7,0,2,43)
   ShowMessage("\\n<Mary>*glug* *glug* *glug*...")
   0()
  EndIf()
  ShowMessageFace("kraken_fc1",1,0,2,44)
  ShowMessage("\\n<Kraken>...Another helping!")
  ShowMessageFace("sonia_fc4",0,0,2,45)
  ShowMessage("\\n<Sonya>........................")
  ShowMessageFace("",0,0,2,46)
  ShowMessage("The Undersea Temple feast continued until the next morning...")
  355("gain_medal(2119)")
  221()
  Wait(60)
  ChangeSwitch(31,31,1)
  ChangeSwitch(32,32,1)
  ChangeSwitch(1924,1924,0)
  ChangeVariable(1094,1094,0,0,6)
  TeleportPlayer(0,131,21,14,8,2)
  211(1)
  222()
  0()



EVENT   7
 PAGE   1
  0()



EVENT   8
 PAGE   1
  // condition: switch 32 is ON
  0()

EVENT   24
 PAGE   1
  0()



EVENT   25
 PAGE   1
  0()



EVENT   38
 PAGE   1
  0()



EVENT   39
 PAGE   1
  0()



EVENT   40
 PAGE   1
  0()



EVENT   41
 PAGE   1
  0()



EVENT   42
 PAGE   1
  0()



EVENT   43
 PAGE   1
  0()



EVENT   44
 PAGE   1
  0()



EVENT   45
 PAGE   1
  0()


