﻿
#===============================================================================
#   Attack Attributes (ID icons, names)
#===============================================================================
module Skill_Data
  ATTRIB = ["Effect+", "None", "\\*\\i[244]", "\\*\\i[188]", "\\*\\i[144]",
            "\\*\\i[145]", "\\*\\i[146]", "\\*\\i[149]", "\\*\\i[148]", "\\*\\i[147]", "\\*\\i[150]", "\\*\\i[151]", 
            "Human Slayer", "Yoma Slayer", "Demi-Human Slayer", "Succubus Slayer", 
            "Vampire Slayer", "Mermaid Slayer", "Elf Slayer", "Fairy Slayer", 
            "Slime Slayer", "Beast Slayer", "Kitsune Slayer", "Lamia Slayer", 
            "Scylla Slayer", "Harpy Slayer", "Dragon Slayer", "Land-Dweller Slayer",
            "Sea-Dweller Slayer", "Insect Slayer", "Plant Slayer", "Zombie Slayer",
            "Ghost Slayer", "Doll Slayer", "Chimera Slayer", "Angel Slayer", 
            "\\*\\i[176]", "\\*\\i[51]", "Giant Slayer", "Healing", "Special Damage",
            "Gravity", "\\*\\i[172]", "", "\\*\\i[164]", "\\*\\i[165]", "\\*\\i[166]", "\\*\\i[168]", 
            "\\*\\i[167]", "\\*\\i[169]", "\\*\\i[173]", "\\*\\i[170]", "\\*\\i[245]", "\\*\\i[290]"]
  TARG = ["None", "Foe", "All Foes", "Random Foes", "Random Allies", "Everyone", "Random Foes and Allies", "Ally", "All Allies", "Fallen Ally", "All Fallen Allies", "Self"]
  EX_TAR = [/<敵単体連続:(\d+)>/, /<敵全体連続:(\d+)>/, /<敵ランダム:(\d+)>/,
            /<味方ランダム:(\d+)>/, /<敵味方全体>/ ,/<敵味方ランダム:(\d+)>/]
  ATK_TYPE = ["•Auto-Hit ", "•Physical Attack ", "•Magical Attack "]
  STEAL_TYPE = ["Nothing", "Item", "Food", "Material", "Panties"]
end
#===============================================================================
#   Display/Hide Window
#===============================================================================

class Scene_Skill < Scene_ItemBase
  
  alias description_extension_start start
  def start
    description_extension_start
    create_description_window
  end
  
  def create_description_window
    @description_window = Window_Item_Description.new
    @description_window.z = 300
    @description_window.back_opacity = 192
    @description_window.hide
  end
  
  def unexpand
    @description_window.hide
    @item_window.activate
    @item_window.show
    @status_window.show
    @command_window.show
    @item_window.cursor_fix = false
  end
  
  alias description_extension_create_item_window create_item_window
  def create_item_window
    description_extension_create_item_window
    @item_window.set_handler(:expand,     method(:on_item_expand))
  end
  
  def on_item_cancel
    if @description_window.visible
      @description_window.hide
      @item_window.activate
      @item_window.show
      @status_window.show
      @command_window.show
      @item_window.cursor_fix = false
    else
      @item_window.unselect
      @command_window.activate
    end
  end
  
  def on_item_expand
    if @description_window.visible
        if @description_window.close_page?
          @description_window.hide
          @item_window.activate
          @item_window.show
          @status_window.show
          @command_window.show
          @item_window.cursor_fix = false
        else
          @description_window.next_page
          @description_window.show_description(item,@actor)
        end
    else
      @description_window.show
      @item_window.hide
      @status_window.hide
      @command_window.hide
      @item_window.cursor_fix = true
      @description_window.nul_page
      @description_window.show_description(item,@actor)
    end
  end
end

class Window_Item_Description < Window_Base
  
  def initialize
    super(0,120,Graphics.width,Graphics.height-120)
    @page    = 0
    @maxpage = 0
  end

#===============================================================================
#   Display Parameters
#===============================================================================  
  
  def close_page?
    return @page >= @maxpage
  end

  def next_page
    @page += 1
  end

  def nul_page
    @page = 0
    @maxpage = 0
  end
  
  def skill_name(item)
    temp = item.icon_index
    temp = temp.to_s
    temp = "\\*\\C[1]Name:\\C[0] " + "\\*\\i[" + temp + "]" + item.name + "\n"
    return temp
  end

  def skill_target(item)
    temp = [item.scope,1]
    temp2 = item.note
    temp2.each_line{|line|
    case line
    when Skill_Data::EX_TAR[0] ; temp = [1,$1.to_i]
    when Skill_Data::EX_TAR[1] ; temp = [2,$1.to_i]
    when Skill_Data::EX_TAR[2] ; temp = [3,$1.to_i]
    when Skill_Data::EX_TAR[3] ; temp = [4,$1.to_i]
    when Skill_Data::EX_TAR[4] ; temp = [5, 1]
    when Skill_Data::EX_TAR[5] ; temp = [6,$1.to_i]
    end
    }
    if temp[1] != 1
      temp[1] = temp[1].to_s
      temp[1] = "×" + temp[1]
    else
      temp[1] = ""
    end
    temp = "\\*\\C[1]Target:\\C[0] " + Skill_Data::TARG[temp[0]] + temp[1] + "\n"
    return temp
  end
  
  def skill_atk_type(item)
    temp = Skill_Data::ATK_TYPE[item.hit_type]
    return temp
  end
  
  def skill_speed(item)
    temp = item.speed
    if temp != 0
      temp = temp.to_s
      temp = "•Speed +" + temp +" "
    else
      temp = ""
    end
    return temp
  end

  def skill_accuracy(item)
    if item.data_ex[:skill_hit] != nil
      temp = item.data_ex[:skill_hit] * 100
      temp = temp.to_i
      temp = temp.to_s
      temp = "•Accuracy=" + temp + "% "
    elsif item.data_ex[:skill_hit_factor] != nil
      temp = item.data_ex[:skill_hit_factor] * 100
      temp = temp.to_i
      if temp < 0
        temp = -temp
        temp = temp.to_s
        temp = "•Accuracy -" + temp + "% "
      else
        temp = temp.to_s
        temp = "•Accuracy +" + temp + "% "
      end
    else
      temp = ""
    end
    return temp
  end
  
  def skill_critical(item)
    if item.damage.type != 0
      if item.damage.critical
        if item.data_ex[:critical_ex] != nil
          temp = item.data_ex[:critical_ex]
          temp = temp.to_s
          temp = "•" + temp +"% Critical Rate"
        else
          temp = ""
        end
      else
        temp = "•No Critical"
      end
    else
      temp = ""
    end
    return temp
  end
  
  def skill_dformula(item)
    if item.damage.type != 0    
      temp = item.damage.formula
      temp = temp.gsub("b.hp", "Current HP")
      temp = temp.gsub("b.mp", "Current MP")
      temp = temp.gsub("b.mhp", "Max HP")
      temp = temp.gsub("b.mmp", "Max MP")
      temp = temp.gsub("(b.def + b.mdef)/2", "(Defense+Willpower)/2")
      temp = temp.gsub("b.mdf", "Willpower")
      temp = temp.gsub("b.def", "Defense")
      temp = temp.gsub("[a.atk, a.def, a.mat, a.mdf, a.agi, a.luk].max", "Highest Stat")
      temp = temp.gsub("v[108]", "Level")
      temp = temp.gsub("v[102]", "Steps Taken")
      temp = temp.gsub("[", "Highest of (")
      temp = temp.gsub("].max", ")")
      temp = temp.gsub("a.atk", "Attack")
      temp = temp.gsub("a.def", "Defense")
      temp = temp.gsub("a.mat", "Magic")
      temp = temp.gsub("a.mdf", "Willpower")
      temp = temp.gsub("a.agi", "Agility")
      temp = temp.gsub("a.luk", "Dexterity")
      temp = temp.gsub("a.hp", "Current HP")
      temp = temp.gsub("a.mhp", "Max HP")
      temp = temp.gsub("a.mmp", "Max MP")
      temp = temp.gsub("a.wp_atk", "Normal Attack")
      temp = temp.gsub("*", "×")
      temp = "\\*\\C[1]Formula: \\C[0](" + temp + ")"
      temp2 = item.damage.variance
      if temp2 != 0
        temp2 = temp2.to_s
        temp = temp + " ± " + temp2 + "%"
      end
      temp = temp + "\n"
    else
      temp = ""
    end
    return temp
  end
  
  def skill_attribute(item)
    if item.damage.type != 0
      temp = "\\*\\C[1]Attribute: \\C[0]" + Skill_Data::ATTRIB[item.damage.element_id+1]
      if item.data_ex[:element_ex] != nil
        temp2 = 0
        while temp2 < item.data_ex[:element_ex].size
          temp = temp + ", " + Skill_Data::ATTRIB[item.data_ex[:element_ex][temp2]+1]
          temp2 += 1
        end
      end
      temp = temp + "\n"
    else
      temp = ""
    end
    return temp
  end

  def skill_wrate(item)
    if item.data_ex[:weapon_rate] != nil
      temp = item.data_ex[:weapon_rate]
      temp3 = ""
      temp.each{|key, val|
      temp2 = val * 100
      temp2 = temp2.to_i
      temp2 = temp2.to_s
      key == 0 ? temp2 = "No Weapon" + " +" + temp2 + "%, " : temp2 = $data_system.weapon_types[key] + " +" + temp2 + "%,"
      temp2 = temp2.gsub(" ", " ")
      temp3 = temp3 + temp2 + " "
      }
      temp = "\\*\\C[1]Weapon Compatibility: \\C[0]" + temp3.chop.chop + "\n"
    else
      temp = ""
    end
    return temp
  end
  
  def skill_sboost(item)
    if item.data_ex[:state_boost] != nil
      temp = item.data_ex[:state_boost]
      temp2 = ""
      temp.each{|key, val|
      temp3 = val * 100
      temp3 = temp3.to_i
      temp3 = temp3.to_s
      temp2 = temp2 + $data_states[key].name + " +" + temp3 + "%" + ", "
      }
      temp = "\\*\\C[1]Damage Amplifed By Ailment: \\C[0]" + temp2.chop.chop + "\n"
    else
      temp = ""
    end
    return temp
  end
  
  def skill_addstate(item)
    temp = ""
    item.effects.each{|effect|
    if effect.code == 21
      temp2 = effect.value1 * 100
      temp2 = temp2.to_i
      temp2 = temp2.to_s
      if effect.data_id == 0
        temp = temp + temp2 + "% " + "of Equipped Effect Chance, "
      else
        temp = temp + $data_states[effect.data_id].name + "(" + temp2 + "%), "
      end
    end
    }
    if temp != ""
      temp = "\\*\\C[1]Adds Status: \\C[0]" + temp.chop.chop + "\n"
    end
    return temp
  end
  
  def skill_remstate(item)
    temp = ""
    item.effects.each{|effect| 
    if effect.code == 22
      temp = temp + $data_states[effect.data_id].name + ", "
    end
    }
    if temp.size > 1000
      temp = "•All Positive Statuses, "
    end
    if temp != ""
      temp = "\\*\\C[1]Removes Status: \\C[0]" + temp.chop.chop + "\n"
    end
    return temp
  end
  
  def skill_selfstate(item)
    temp = ""
    item.effects.each{|effect| 
    if effect.code == 53
      temp = temp + $data_states[effect.data_id].name + ", "
    end
    }
    if temp != ""
      temp = "\\*\\C[1]Sets Status: \\C[0]" + temp.chop.chop + "\n"
    end
    return temp
  end
  
  def skill_predstate(item)
    temp = ""
    item.effects.each{|effect| 
    if effect.code == 52
      effect.value1.each{|val| temp = temp + $data_states[val].name + ", "}
    end
    }
    if temp != ""
      temp = "\\*\\C[1]Predation Condition: \\C[0]" + temp.chop.chop + "\n"
    end
    return temp
  end
  
  def skill_deadstate(item)
    temp = ""
    item.effects.each{|effect| 
    if effect.code == 51
      temp = temp + $data_states[effect.value2[:id]].name + ", "
    end
    }
    if temp != ""
      temp = "\\*\\C[1]Instant KO Condition: \\C[0]" + temp.chop.chop + "\n"
    end
    return temp
  end
  
  def skill_effects(item)
    temp = ""
    item.effects.each{|effect|
    case effect.code
    when 11
      temp2 = effect.value1 * 100
      temp2 = temp2.to_i
      temp2 = temp2.to_s
      temp = temp + "Recover " + temp2 +"% HP, "
    when 12
      if effect.value1 != 0
        temp2 = effect.value1 * 100
        temp2 = temp2.to_i
        temp2 = temp2.to_s
        temp = temp + "Recover " + temp2 +"% MP, "
      else
        temp2 = effect.value2
        temp2 = temp2.to_i
        temp2 = temp2.to_s
        temp = temp + "Recover " + temp2 +" MP, "        
      end
    when 13
      temp2 = effect.value1
      temp2 = temp2.to_i
      temp2 = temp2.to_s
      temp = temp + "Recover " + temp2 +"% SP, "
    when 54
      temp2 = effect.value1 * 100
      temp2 = temp2.to_i
      temp2 = temp2.to_s
      if effect.data_id == :HP
        temp = temp + "Drain " + temp2 +"% HP, "
      elsif effect.data_id == :MP
        temp = temp + "Drain " + temp2 +"% MP, "
      end
    when 41
      temp = temp + "Guaranteed Escape, "
    when 44
      temp2 = $data_common_events[effect.data_id].name
      temp = temp + temp2 + ", "
    when 45
      temp = temp + "Steal " + Skill_Data::STEAL_TYPE[effect.data_id] + ", "
    when 46
      temp2 = effect.value2[0]
      temp2 = temp2.to_s
      temp3 = $data_items[effect.value1[0]].name
      temp = temp + "Acquire " + temp2 + "×" + temp3 + ", "
    when 47
      temp2 = effect.data_id.to_s
      temp = temp + "Nullify Attack ×" + temp2 + ", "
    when 48
      temp2 = effect.data_id.to_s
      temp = temp + "Freeze Time for " + temp2 + " Turn(s), "
    end
    }
    if item.data_ex[:pinchi_boost] != nil
      temp2 = item.data_ex[:pinchi_boost]
      temp2 = temp2.to_s
      temp = temp + temp2 +"% Damage per % of Missing HP, "
    end
    if item.data_ex[:warp_item?]
      temp = temp + "Overworld Warp, "
    end
    if item.data_ex[:apply_pharmacology?]
      temp = temp + "Boosted by Medicine Lore, "
    end
#    if item.data_ex[:use_slot?]
#      temp = temp + "Play Slots, "
#    end
#    if item.data_ex[:use_poker?]
#      temp = temp + "Play Poker, "
#    end
    if temp != ""
      temp = "\\*\\C[1]Other Effects: \\C[0]" + temp.chop.chop + "\n"
    end
    return temp
  end
  
  def get_description(item)
    tempx = skill_name(item)
    tempx = tempx + skill_target(item)
    tempx = tempx + skill_atk_type(item) + skill_speed(item) + skill_accuracy(item) + skill_critical(item) + "\n"
    tempx = tempx + skill_dformula(item)
    tempx = tempx + skill_attribute(item)
    tempx = tempx + skill_wrate(item)
    tempx = tempx + skill_sboost(item)
    tempx = tempx + skill_addstate(item)
    tempx = tempx + skill_remstate(item)
    tempx = tempx + skill_selfstate(item)
    tempx = tempx + skill_predstate(item)
    tempx = tempx + skill_deadstate(item)
    tempx = tempx + skill_effects(item)
    return tempx
  end
  
  def show_description(item,actor)
#    msgbox_p(item)
    contents.clear
    temp = ""
    if item.data_ex[:multi_invoke] != nil
      temp = temp + get_description($data_skills[item.data_ex[:multi_invoke][0]])
      temp = temp + get_description($data_skills[item.data_ex[:multi_invoke][1]])
    elsif item.id == 3147
      temp = temp + get_description($data_skills[actor.change_skill(item.id)])
    elsif item.id == 1996
      @maxpage = 10
      temp = temp + get_description($data_skills[3247 + @page])
    elsif item.id == 1995
      @maxpage = 6
      temp = temp + get_description($data_skills[3270 + @page])
    elsif item.data_ex[:random_invoke] != nil
      @maxpage = item.data_ex[:random_invoke].size - 1
      temp2 = $data_skills[item.data_ex[:random_invoke][@page]]
      if temp2.data_ex[:multi_invoke] != nil
        temp = temp + get_description($data_skills[temp2.data_ex[:multi_invoke][0]])
        temp = temp + get_description($data_skills[temp2.data_ex[:multi_invoke][1]])
      else
        temp = temp + get_description(temp2)
      end
    else
      temp = temp + get_description(item)
    end
    draw_text_ex(0, 0, temp)
    if @page != @maxpage
      draw_text(500,284,600,308,"Press [A] for more results")
    end
  end
end

class Window_SkillList < Window_Selectable
  def process_handling
    return unless open? && active
    return process_ok       if ok_enabled?        && Input.trigger?(:C)
    return process_cancel   if cancel_enabled?    && Input.trigger?(:B)
    return process_pagedown if handle?(:pagedown) && Input.trigger?(:R)
    return process_pageup   if handle?(:pageup)   && Input.trigger?(:L)
    return process_alt      if Input.trigger?(:X) && $game_system.conf[:mod_skills] == 1
  end

  def process_alt
    call_handler(:expand)
  end
end

#===============================================================================
# End
#===============================================================================
module State_Data
  RES_TYPE = ["•None", "•Attack Foes", "•Attack Random Foes or Allies", "•Attack Allies", "•Cannot Act"]
  SEAL_TYPE = ["[None]", "[None]", "[None]", "[None]", "[None]","[None]",
  "Dagger","Sword","Rapier",
  "Katana","Spear","Axe",
  "Club","Scythe","Bow",
  "Whip","Throwing","Flail",
  "Fan","Gun","Multiweapon",
  "Unarmed","White Magic","Black Magic",
  "Time Magic","Summoning","Holy",
  "Dark","Spellblade","Taoism",
  "Thievery","Ninjutsu","Piracy",
  "Justice","Mercantile","EX-Item",
  "Oracle","Dancing","Singing","Talk",
  "Magic Science","Alchemy","Grimoire",
  "Makina","Cooking","Medicine",
  "Service","Ruling","Heroism",
  "Sexcraft","Demon Arts","Ocean",
  "Slime","Beast","Snake",
  "Tentacle","Wing","Insect",
  "Plant","Corpse","Artificial",
  "Nature","Breath","Special",
  "Weapon","[None]","[None]"]
  FEATURE_TYPE = ["•Auto-Fight","•Guard","•Cover","•Conserve SP"]
end
#===============================================================================
# Status Timer
#===============================================================================
class Game_BattlerBase
  def st_states(state_id)
    return @state_turns[state_id]
  end
  
  def def_wall
    return @cnt[:defense_wall].size
  end
end

#===============================================================================
# Status Window
#===============================================================================


class Window_States_Description < Window_Base
  def initialize
    super(0,48,Graphics.width,313)
    self.visible = false
    @yy = 0
  end  

  def state_name(state)
    draw_icon(state.icon_index == 0 ? 299 : state.icon_index,0,@yy)
    draw_text(24,@yy,516,24,state.name)
  end

  def state_timer(item,state)
    if state.auto_removal_timing != 0
      temp = (item.st_states(state.id)).to_s
    else
      temp = "∞"
    end
    temp = "#{temp} Turn(s)"
    draw_text(540,@yy,70,24,temp)
  end
  
  def state_restrict(state)
    draw_text(0,@yy,389,24,State_Data::RES_TYPE[state.restriction])
    @yy +=24
  end

  def state_effect(effect)
    tempar = []
    case effect.code
    when 11
      temp = effect.value * 100
      if temp != 0
       temp = temp.to_i - 100
        if temp < 0
          temp = -temp
          temp = temp.to_s
          temp = "•#{$data_system.elements[effect.data_id]} Resistance +#{temp}%"
        else
          temp = temp.to_s
          temp = "•#{$data_system.elements[effect.data_id]} Resistance -#{temp}%"
        end
      else
        temp = "•Nullify #{$data_system.elements[effect.data_id]}"
      end
    when 13
      temp = effect.value * 100
      if temp != 0
       temp = temp.to_i - 100
        if temp < 0
          temp = -temp
          temp = temp.to_s
          temp = "•#{$data_states[effect.data_id].name} Resistance +#{temp}%"
        else
          temp = temp.to_s
          temp = "•#{$data_states[effect.data_id].name} Resistance -#{temp}%"
        end
      else
        temp = "•Nullify #{$data_states[effect.data_id].name}"
      end
      if effect.data_id >=271 && effect.data_id <=276
        temp = nil
      end
    when 14
      temp = "•Nullify #{$data_states[effect.data_id].name}"
    when 21
      case effect.data_id
      when 0
        temp = effect.value * 100 - 100
        temp = temp.to_i
        if temp < 0
          temp = -temp
          temp = temp.to_s
          temp = "•Max HP -" + temp + "%"
        else
          temp = temp.to_s
          temp = "•Max HP +" + temp + "%"
        end
      when 1
        temp = effect.value * 100 - 100
        temp = temp.to_i
        if temp < 0
          temp = -temp
          temp = temp.to_s
          temp = "•Max MP -" + temp + "%"
        else
          temp = temp.to_s
          temp = "•Max MP +" + temp + "%"
        end
      when 2
        temp = effect.value * 100 - 100
        temp = temp.to_i
        if temp < 0
          temp = -temp
          temp = temp.to_s
          temp = "•Attack -" + temp + "%"
        else
          temp = temp.to_s
          temp = "•Attack +" + temp + "%"
        end
      when 3
        temp = effect.value * 100 - 100
        temp = temp.to_i
        if temp < 0
          temp = -temp
          temp = temp.to_s
          temp = "•Defense -" + temp + "%"
        else
          temp = temp.to_s
          temp = "•Defense +" + temp + "%"
        end
      when 4
        temp = effect.value * 100 - 100
        temp = temp.to_i
        if temp < 0
          temp = -temp
          temp = temp.to_s
          temp = "•Magic -" + temp + "%"
        else
          temp = temp.to_s
          temp = "•Magic +" + temp + "%"
        end
      when 5
        temp = effect.value * 100 - 100
        temp = temp.to_i
        if temp < 0
          temp = -temp
          temp = temp.to_s
          temp = "•Willpower -" + temp + "%"
        else
          temp = temp.to_s
          temp = "•Willpower +" + temp + "%"
        end
      when 6
        temp = effect.value * 100 - 100
        temp = temp.to_i
        if temp < 0
          temp = -temp
          temp = temp.to_s
          temp = "•Agility -" + temp + "%"
        else
          temp = temp.to_s
          temp = "•Agility +" + temp + "%"
        end
      when 7
        temp = effect.value * 100 - 100
        temp = temp.to_i
        if temp < 0
          temp = -temp
          temp = temp.to_s
          temp = "•Dexterity -" + temp + "%"
        else
          temp = temp.to_s
          temp = "•Dexterity +" + temp + "%"
        end
      end
    when 22
      case effect.data_id
      when 0
        temp = effect.value * 100
        temp = temp.to_i
        if temp < 0
          temp = -temp
          temp = temp.to_s
          temp = "•Accuracy -" + temp + "%"
        else
          temp = temp.to_s
          temp = "•Accuracy +" + temp + "%"
        end
      when 1
        temp = effect.value * 100
        temp = temp.to_i
        if temp < 0
          temp = -temp
          temp = temp.to_s
          temp = "•Evasion -" + temp + "%"
        else
          temp = temp.to_s
          temp = "•Evasion +" + temp + "%"
        end
      when 2
        temp = effect.value * 100
        temp = temp.to_i
        if temp < 0
          temp = -temp
          temp = temp.to_s
          temp = "•Critical Rate -" + temp + "%"
        else
          temp = temp.to_s
          temp = "•Critical Rate +" + temp + "%"
        end
      when 3
        temp = effect.value * 100
        temp = temp.to_i
        if temp < 0
          temp = -temp
          temp = temp.to_s
          temp = "•Critical Avoid -" + temp + "%"
        else
          temp = temp.to_s
          temp = "•Critical Avoid +" + temp + "%"
        end
      when 4
        temp = effect.value * 100
        temp = temp.to_i
        if temp < 0
          temp = -temp
          temp = temp.to_s
          temp = "•Magic Evasion -" + temp + "%"
        else
          temp = temp.to_s
          temp = "•Magic Evasion +" + temp + "%"
        end
      when 5
        temp = effect.value * 100
        temp = temp.to_i
        if temp < 0
          temp = -temp
          temp = temp.to_s
          temp = "•Magic Reflection -" + temp + "%"
        else
          temp = temp.to_s
          temp = "•Magic Reflection +" + temp + "%"
        end
      when 6
        temp = effect.value * 100
        temp = temp.to_i
        if temp < 0
          temp = -temp
          temp = temp.to_s
          temp = "•Counter Rate -" + temp + "%"
        else
          temp = temp.to_s
          temp = "•Counter Rate +" + temp + "%"
        end
      when 7
        temp = effect.value * 100
        temp = temp.to_i
        if temp < 0
          temp = -temp
          temp = temp.to_s
          temp = "•-" + temp + "% HP Per Turn"
        else
          temp = temp.to_s
          temp = "•+" + temp + "% HP Per Turn"
        end
      when 8
        temp = effect.value * 100
        temp = temp.to_i
        if temp < 0
          temp = -temp
          temp = temp.to_s
          temp = "•-" + temp + "% MP Per Turn"
        else
          temp = temp.to_s
          temp = "•+" + temp + "% MP Per Turn"
        end
      when 9
        temp = effect.value * 100
        temp = temp.to_i
        if temp < 0
          temp = -temp
          temp = temp.to_s
          temp = "•-" + temp + "% SP Per Turn"
        else
          temp = temp.to_s
          temp = "•+" + temp + "% SP Per Turn"
        end
      end
    when 23
      case effect.data_id
      when 0
        temp = (effect.value * 100).to_i.to_s
        temp = "•Chance to be hit=" + temp + "%"
      when 4
        temp = (effect.value * 100).to_i.to_s
        temp = "•MP Cost=" + temp + "%"
      when 5
        temp = (effect.value).to_i.to_s
        temp = "•Attack SP Charge ×" + temp + ""
      when 6
        temp = (effect.value * 100).to_i.to_s
        temp = "•Physical Damage Taken=" + temp + "%"
      when 7
        temp = (effect.value * 100).to_i.to_s
        temp = "•Magical Damage Taken=" + temp + "%"
      end
    when 31
      temp = "•" + $data_system.elements[effect.data_id] + " Strike"
    when 32
      temp = (effect.value * 100).to_i.to_s
      temp = "•#{$data_states[effect.data_id].name} Strike +#{temp}%]"
    when 34
      temp = (effect.value).to_i.to_s
      temp = "•+#{temp} Normal Attacks"
      temp = effect.value == 1 ? temp + "a" : temp
      temp = effect.value > 1 && effect.value < 1 ? temp + "and" : temp
      temp = temp + ""
    when 41
      temp = "•Enable " + State_Data::SEAL_TYPE[effect.data_id] + ""
    when 42
      temp = "•Seal " + State_Data::SEAL_TYPE[effect.data_id] + ""
    when 43
      temp = "•Skill Unlock: " + $data_skills[effect.data_id].name + ""
    when 61
      temp = effect.value
      if temp == temp.to_i
        temp = temp.to_i.to_s
        temp = "•Actions +" + temp + ""
      else
        temp = (temp * 100).to_i.to_s
        temp = "•" + temp + "% Extra Action Chance"
      end
    when 62
      temp = State_Data::FEATURE_TYPE[effect.data_id]
    when 67
      case effect.data_id
      when 0
        temp = (effect.value * 100).to_i.to_s
        temp = "•Gold Drop Rate=" + temp + "%"
      when 1
        temp = (effect.value * 100).to_i.to_s
        temp = "•Item Drop Rate=" + temp + "%"
      when 3
        temp = (effect.value * 100).to_i.to_s
        temp = "•Recruit Rate=" + temp + "%"
      end
    when 68
      case effect.data_id
      when 2
        temp = "•Heal Reversal"
      when 7
        temp = effect.value.to_s
        temp = "•Nullify Damage Less Than #{temp}"
      when 8
        temp = "•Convert 100% of Damage Taken into MP"
      when 9
        temp = "•Convert 100% of Damage Taken into Gold"
      when 10
        temp = "•Convert 10% of Damage Dealt into MP"
      when 11
        temp = "•Substitute 100% of Damage Taken with Gold"
      when 12
        temp = "•On Death: #{$data_skills[effect.value].name}"
      when 14
        temp = (effect.value[:per] * 100).to_i.to_s
        temp = "•Turn Start: #{temp}% #{$data_skills[effect.value[:id]].name}"
      when 15
        temp = (effect.value[:per] * 100).to_i.to_s
        temp = "•End of Turn: #{temp}% #{$data_skills[effect.value[:id]].name}]"
      when 19
        temp = (effect.value * 100).to_i.to_s
        temp = "SP Cost " + temp + "%]"
      when 26
        temp = "•Normal Attack: #{$data_skills[effect.value].name}"
      when 27
        temp = "•Counter with #{$data_skills[effect.value[0]].name}"
      when 29
        temp = (effect.value * 100).to_i.to_s
        temp = "•Dodge Counter Rate +#{temp}%"
      when 30
        temp = (effect.value * 100).to_i.to_s
        temp = "•Magic Counter Rate +#{temp}%"
      when 31
        temp = (effect.value * 100).to_i.to_s
        temp = "•Parry Chance +#{temp}%"
      when 32
        temp = (effect.value * 100).to_i.to_s
        temp = "•Magic Parry Chance +#{temp}%"
      when 33
        temp = (effect.value * 100).to_i.to_s
        temp = "[Perfect Parry Chance +#{temp}%]"
      when 35
        temp = (effect.value * 100).to_i.to_s
        temp = "•Experience Gained=" + temp + "%"
      when 36
        temp = (effect.value * 100).to_i.to_s
        temp = "•Job Experience Gained=" + temp + "%"
      when 37
        i = 0
        effect.value.each{|att,val|
        temp = val.to_s
        temp = "•" + $data_system.skill_types[att] + " Skill ×" + temp + ""
        tempar[i] = temp
        i += 1
        }
      when 40
        i = 0
        effect.value.each{|val|
        temp = "•Absorb " + $data_system.elements[val] + ""
        tempar[i] = temp
        i += 1
        }
      when 42
        temp = "•Full Recovery from Death"
      when 46
        temp = (effect.value * 100).to_i
        if temp < 0
          temp = -temp
          temp = temp.to_s
          temp = "•Physical Reflection -" + temp + "%"
        else
          temp = temp.to_s
          temp = "•Physical Reflection +" + temp + "%"
        end
      when 53
        temp = (effect.value * 100).to_i.to_s
        temp = "•Perfect Dodge +#{temp}%"
      when 54
        temp = (effect.value * 100).to_i.to_s
        temp = "•All Damage Taken=" + temp + "%"
      when 55
        temp = "•Reflect " + $data_system.elements[effect.value] + ""
      end
    when 69
      case effect.data_id
      when 0
        i = 0
        effect.value.each{|att,val|
        temp = (val * 100).to_i.to_s
        temp = "•" + $data_system.elements[att] + " Booster +" + temp + "%]"
        tempar[i] = temp
        i += 1
        }
      when 4
        temp = "•Normal Attack Power +400%"
      when 7
        i = 0
        effect.value.each{|att,val|
        temp = val.to_i.to_s
        temp = "[+#{temp} Action(s) #{State_Data::SEAL_TYPE[att]}]"
        tempar[i] = temp
        i += 1
        }
      when 11
        temp = (effect.value * 100).to_i.to_s
        temp = "•Counter Damage +#{temp}%]"
      end
    end
    if tempar.size > 1
      return tempar
    else
      return temp
    end
  end

  def make_target(item)
    @item = item
  end

  def get_description(index)
    @yy = 0
    xx = 0
    xmax = 1
#    msgbox_p(index)
    contents.clear
    state_name(index)
    state_timer(@item,index)
    @yy += 24
    xmax = index.features.size
    if index.restriction != 0
      xmax += 1
      state_restrict(index)
    end
    xmax = (xmax / 10) + 1
    if index.features != nil
      index.features.each{|effect|
      temp = state_effect(effect)
      if temp != nil
        if temp.is_a?( Array )
          xmax = (index.features.size + temp.size) / 10 + 1
          for i in 0...temp.size
            draw_text(xx,@yy,contents_width/xmax,24,temp[i])
            @yy +=24
            if @yy >= 288
              xx += contents_width/xmax
              @yy = 24
            end   
          end
        else
          draw_text(xx,@yy,contents_width/xmax,24,temp)
          @yy +=24
          if @yy >= 288
            xx += contents_width/xmax
            @yy = 24
          end
        end
      end
      }
    end
  end
end

class Window_Wall_Description < Window_Base
  def initialize
    super(0,361,129,fitting_height(1))
    self.visible = false
  end
  
  def make_wall(item)
    temp = item.def_wall.to_s
    draw_text(0,0,120,24,"Nullify #{temp} Hit(s)")
  end
end

class Window_States_Select < Window_Selectable
  def initialize
    super(0,0,Graphics.width,fitting_height(1)+1)
    refresh
    self.visible = false
    @itemx = 0
    @descst_window = Window_States_Description.new
    @wall_window = Window_Wall_Description.new
  end  

  def get_selection(item)
    @descst_window.show.activate
    @descst_window.make_target(item)
    @itemx = item
    if item.def_wall !=0
      @wall_window.show.activate
      @wall_window.contents.clear
      @wall_window.make_wall(item)
    end
    refresh
    if @itemx.states.size > 0
      select(0)
      @descst_window.get_description(@itemx.states[@index])
    else
      select(-1)
      @descst_window.contents.clear
      draw_text_ex(0,0,"No Status Changes")
    end
  end

  def col_max
    23
  end
  
  def spacing
    return 0
  end

  def item_height
    25
  end
  
  def process_cursor_move
    return unless cursor_movable?
    last_index = @index
    cursor_down (Input.trigger?(:DOWN))  if Input.repeat?(:DOWN)
    cursor_up   (Input.trigger?(:UP))    if Input.repeat?(:UP)
    cursor_right(Input.trigger?(:RIGHT)) if Input.repeat?(:RIGHT)
    cursor_left (Input.trigger?(:LEFT))  if Input.repeat?(:LEFT)
    cursor_pagedown   if !handle?(:pagedown) && Input.trigger?(:R)
    cursor_pageup     if !handle?(:pageup)   && Input.trigger?(:L)
    if @index != last_index
      Sound.play_cursor
      @descst_window.get_description(@itemx.states[@index])
    end
  end

  def item_max
    if @itemx != nil
      temp = @itemx.states.size
    else
      temp = 0
    end
    return temp
  end
  
  def draw_item(index)
    icon = @itemx.states[index].icon_index
    draw_icon(icon == 0 ? 299 : icon,26*index+1,0)
  end

  def hide
    @descst_window.hide
    @wall_window.hide
    self.visible = false
    self
  end
end

#===============================================================================
# Window
#===============================================================================

class Window_BatAll < Window_Selectable
  def initialize(info_viewport)
    super(0, info_viewport.rect.y, window_width, fitting_height(4))
    refresh
    self.visible = false
    @last_select = 0
    @info_viewport = info_viewport
  end

  def window_width
    Graphics.width - 128
  end

  def col_max
    return 2
  end

  def item_max
    $game_party.battle_members.size + $game_troop.members.size
  end

  def bat_item 
    temp = $game_party.battle_members.size
    if @index < temp
      temp = $game_party.battle_members[@index]
    else
      temp = $game_troop.members[@index - temp]
    end
    @last_select = @index
    return temp
  end

  def draw_item(index)
    change_color(normal_color)
    temp = $game_party.battle_members.size
    if index < temp
      name = $game_party.battle_members[index].name
    else
      name = $game_troop.members[index - temp].name
    end
    draw_text(item_rect_for_text(index), name)
  end

  def show
    if @info_viewport
      width_remain = Graphics.width - width
      self.x = width_remain
      @info_viewport.rect.width = width_remain
      select(@last_select)
    end
    super
  end

  def hide
    @info_viewport.rect.width = Graphics.width if @info_viewport
    @last_select = 0
    super
  end
end

#===============================================================================
# Initialization
#===============================================================================

class Scene_Battle < Scene_Base
  def create_all_windows
    create_message_window
    create_scroll_text_window
    create_log_window
    create_status_window
    create_bench_window 
    create_info_viewport
    create_party_command_window
    create_actor_command_window
    create_help_window
    create_skill_window
    create_item_window
    create_actor_window
    create_enemy_window
    create_simple_status_window 
    create_skillname_window 
    create_xstatus_window
    create_descstatus_window
  end
  
  def on_xstat_ok
    @selstate_window.show.activate
    @selstate_window.get_selection(@batall_window.bat_item)
  end

  def on_xstat_cancel
    @batall_window.hide.deactivate
    @party_command_window.activate
  end

  def on_descstat_cancel
    @batall_window.show.activate
    @selstate_window.hide.deactivate
  end

  def create_xstatus_window
    @batall_window = Window_BatAll.new(@info_viewport)
    @batall_window.set_handler(:ok,     method(:on_xstat_ok))
    @batall_window.set_handler(:cancel, method(:on_xstat_cancel))
  end
  
  def create_descstatus_window
    @selstate_window = Window_States_Select.new
    @selstate_window.set_handler(:cancel, method(:on_descstat_cancel))
  end

  def command_status
    @batall_window.show.activate
    @batall_window.refresh
  end

  def create_party_command_window
    @party_command_window = Window_PartyCommand.new
    @party_command_window.viewport = @info_viewport
    @party_command_window.set_handler(:fight,  method(:command_fight))
    @party_command_window.set_handler(:escape, method(:command_escape))
    @party_command_window.set_handler(:all_attack, method(:command_all_attack))
    @party_command_window.set_handler(:shift_change, method(:command_shift_change))
    @party_command_window.set_handler(:giveup, method(:command_giveup))
    @party_command_window.set_handler(:xstatus, method(:command_status))
    @party_command_window.set_handler(:library, method(:command_library))
    @party_command_window.set_handler(:config, method(:command_config))
    @party_command_window.unselect    
  end
end

class Window_PartyCommand < Window_Command
  def make_command_list
    add_command(Vocab::fight,       :fight)
    add_command(Vocab::shift_change,:shift_change, can_shift_change?)
    add_command(Vocab::all_attack,  :all_attack)
    add_command(Vocab::escape,      :escape, BattleManager.can_escape?)
    add_command(Vocab::giveup,      :giveup, $game_party.all_members.any?{|member| member.luca?} && $game_actors[NWConst::Actor::LUCA].exist?)
    if $game_system.conf[:mod_skills] == 1 
      add_command("Status",        :xstatus)
    end
    add_command(Vocab::library,     :library)
    add_command(Vocab::config,      :config)
  end
end

#===============================================================================
# End of Script
#===============================================================================